{
    "output_path": "/mnt/netapp1/Proxecto_NOS/bsc/tts/training_outputs/0.14.3",
    "logger_uri": null,
    "run_name": "multisteplr",
    "project_name": null,
    "run_description": "",
    "print_step": 25,
    "plot_step": 100,
    "model_param_stats": false,
    "wandb_entity": null,
    "dashboard_logger": "tensorboard",
    "save_on_interrupt": true,
    "log_model_step": 1000,
    "save_step": 1000,
    "save_n_checkpoints": 5,
    "save_checkpoints": true,
    "save_all_best": false,
    "save_best_after": 10000,
    "target_loss": null,
    "print_eval": true,
    "test_delay_epochs": -1,
    "run_eval": true,
    "run_eval_steps": null,
    "distributed_backend": "nccl",
    "distributed_url": "tcp://localhost:54321",
    "mixed_precision": false,
    "precision": "fp16",
    "epochs": 1000,
    "batch_size": 64,
    "eval_batch_size": 8,
    "grad_clip": [
        1000.0,
        1000.0
    ],
    "scheduler_after_epoch": true,
    "lr": 0.001,
    "optimizer": "AdamW",
    "optimizer_params": {
        "betas": [
            0.8,
            0.99
        ],
        "eps": 1e-09,
        "weight_decay": 0.01
    },
    "lr_scheduler": "",
    "lr_scheduler_params": null,
    "use_grad_scaler": false,
    "allow_tf32": false,
    "cudnn_enable": true,
    "cudnn_deterministic": false,
    "cudnn_benchmark": false,
    "training_seed": 54321,
    "model": "vits",
    "num_loader_workers": 4,
    "num_eval_loader_workers": 4,
    "use_noise_augment": false,
    "audio": {
        "fft_size": 1024,
        "sample_rate": 16000,
        "win_length": 1024,
        "hop_length": 256,
        "num_mels": 80,
        "mel_fmin": 60,
        "mel_fmax": null
    },
    "use_phonemes": true,
    "phonemizer": "espeak",
    "phoneme_language": "ca",
    "compute_input_seq_cache": false,
    "text_cleaner": "phoneme_cleaners",
    "enable_eos_bos_chars": false,
    "test_sentences_file": "",
    "phoneme_cache_path": "/mnt/netapp1/Proxecto_NOS/bsc/tts/training_outputs/catalan_phoneme_cache_10_08_2023",
    "characters": {
        "characters_class": "TTS.tts.models.vits.VitsCharacters",
        "vocab_dict": null,
        "pad": "_",
        "eos": "",
        "bos": "",
        "blank": null,
        "characters": "ABCDEFGHIJKLMNOPQRSTUVWXYZabcdefghijklmnopqrstuvwxyz",
        "punctuations": ";:,.!?\u00a1\u00bf\u2014\u2026\"\u00ab\u00bb\u201c\u201d ",
        "phonemes": "\u0251\u0250\u0252\u00e6\u0253\u0299\u03b2\u0254\u0255\u00e7\u0257\u0256\u00f0\u02a4\u0259\u0258\u025a\u025b\u025c\u025d\u025e\u025f\u0284\u0261\u0260\u0262\u029b\u0266\u0267\u0127\u0265\u029c\u0268\u026a\u029d\u026d\u026c\u026b\u026e\u029f\u0271\u026f\u0270\u014b\u0273\u0272\u0274\u00f8\u0275\u0278\u03b8\u0153\u0276\u0298\u0279\u027a\u027e\u027b\u0280\u0281\u027d\u0282\u0283\u0288\u02a7\u0289\u028a\u028b\u2c71\u028c\u0263\u0264\u028d\u03c7\u028e\u028f\u0291\u0290\u0292\u0294\u02a1\u0295\u02a2\u01c0\u01c1\u01c2\u01c3\u02c8\u02cc\u02d0\u02d1\u02bc\u02b4\u02b0\u02b1\u02b2\u02b7\u02e0\u02e4\u02de\u2193\u2191\u2192\u2197\u2198'\u0329'\u1d7b",
        "is_unique": true,
        "is_sorted": true
    },
    "add_blank": true,
    "batch_group_size": 0,
    "loss_masking": null,
    "min_audio_len": 4000,
    "max_audio_len": 200000,
    "min_text_len": 3,
    "max_text_len": 115,
    "compute_f0": false,
    "compute_energy": false,
    "compute_linear_spec": true,
    "precompute_num_workers": 0,
    "start_by_longest": false,
    "shuffle": false,
    "drop_last": false,
    "datasets": [
        {
            "formatter": "vctk_old",
            "dataset_name": "vctk_old",
            "path": "/mnt/netapp1/Proxecto_NOS/bsc/speech_data/multispeaker_ca",
            "meta_file_train": "",
            "ignored_speakers": [
                "0021fa05994fff2526e68ee711aecc26380750e316e7113fe13a111ae493373f296944ba737076a9466e0596cded6a223a9b80736ea1ce00b1d7e3aa7e46924d",
                "00236e350cc84b94a6684f182acf96e68963d7fa1164d4fa56da20f46f210b2dd3ecf189e97fb3c94113a54c12dc20550508f5b7b9b37e1873898d58a308feb5",
                "00512989213a06cccee0659efa8df02e1d0662aaf265f85420f6f3ccb8c5ae78236aa522c91443a34f59726ae5cd90a13892505cd9caa9afc1619d5866ef04c8",
                "00595551f5bc52c3e54646c3288a916dbc82a26453989c969e546ee21b2faf8cde8f3b6c63987555d06bae45432c712979638295a27968de982c9161d7de49d0",
                "00983a845f95493fb27125b114c635f3b40060efaee167d32d8a3dd040c877713446c7bd3e6944641227bdb4165ecb8d684ec2ef66c817e65e77c52cc50e62ed",
                "00f5ccb06ce435163d4e0ee5bd9c441605ac017164f603069c6fc39925a636a82de31b82fbf098f1c68cbabc88c39a964916dbb417f9e846a9fd554e327b3bd6",
                "01067663db08dbdd404245317a8caf0a077a62ae3cf1e836c8f17cc93efe9a13a9c96fce7f955a3082a983fcdefa761a5644330a212a3618330c1442c90f59cd",
                "01334eca08791ab04e8e58b569b41278f64d2e8a762a32ba8c5eeeb3d68caa517f09a1708a8fc4ba91540e00c47369cb228224225991efe0967485499dc15026",
                "0143b5ff8cd8e5a3dda5f3d827767f860ba84c892ab41c419fa6dd7180a30f77aa4c3eb6d06f1a35070d650851aed0672feff3248a3dd133001e8cf03db02402",
                "017e296db015958a8f947395e8fde1184d68a5188a8e95b755e00c09529818328c9d7955f7d04b0a4ba49c653677f215265658afde6e89fdd2391eb714531056",
                "018af078641c8984238a5e3301bc459e5c8851fbc6614db9f976d8c4bb1da2bcd88d1ed3f33633c25431e8458c1e08d90e783b81db98efd901c3c08b17c4de1f",
                "02aba67350941cfb8a1360a8512707c82c08c3dc83dd5f9d71c86902cba0216cf9e52f78156b3b1c777d3ee90ea5425fdeee8781afe96efc605c5c33026170be",
                "02c1654bee2517cac6c80225b3ac64731873b2751c689878738bdb60981ca276112182ee59c9a8cc6644242ab030e6721d1c4cc4d8db71c479eb31e7dd082763",
                "0379167b42d65ca327eae74fa5f22a3f72c5d8445d0a0ac8dad8f9d49a276a1a3f2cc19fcde108544420b6505e0a5d990a33564f27a75090c753a2383011f908",
                "0433e3034a590d375b5fbd123b4af54828074cb96a5093b7aeef5b20d432d02ef6f709b41c93383b70d636e508fe5649924412e61b17c7df0d1faaec4381fde8",
                "04a2a84b19c4acb0270894df949fa8b43ecf539b0c63d70a47170d42f5bca0fca0119b80fc4648567f4a9b872da6fe98cc8a762742666ad729e9f2b86ea7cff1",
                "05b77cc2df02a4061c9c1468bdfc1c839a545aefb3cef15fba100eff6ebc7f0ca4e2deeac3d0cedf23616437fce1c92fc69715123d356d88eb0dcd35a50784e5",
                "05fb7a76b0b0d1ccde54438d4dce87e03944a446841ea328081e737002c27c730c3473d9faf6547f4b8138ca6010886a97e0d119e281bac67d281322c10710de",
                "060423438058682729c5356b12fee91d397e4034adb13e1da616d6f4dc5677805fa33cda583f859c41c9acca8d60266d25c1fea3737dc8a689113fb59e73e2f6",
                "0689075807efefb488aefe8e8d51a8f89e6047e9ad68faf07a55b28a2a87957835c0db04ce3c4aae10410496debc1620a542f704e953b8a5cc89b30eac3f050f",
                "06c6d2e093624103c268e2cba37466147fd564bff1312a78d1c5be9ba168af4cf4819c7a91d5321d7aa9bd20ad6c702ca2cb005496dd20c45d293200b2b8a7b9",
                "0727cbbacecb12625985f110ce26f03ded913c0e099740f967ba193c1ffd15a00b9a8b50fe94a4d9c3794c5e12d69d9923577ee216ae44fcf7633c9ca215723c",
                "0757ab1a84ce45c3d83d9795debb516521baf14ac4d415bbfc94920c5c000799865640eeb38a5f83690369e46dade52439a96f984b581cd969808eeffb23d7c6",
                "07c30f9f714ae6ed9a33087e67f6459a9431d41bed57849942986fdb302cd1734b1cf746deaa1abc9f393d2ee2cef576427d55b9ea0a88ae3228d5b967e99c5c",
                "086d86e0a31f807689d346bf449f5f4db8724b121f1aeee5de1f80575b027778ab37df88feb7e05996f1ae3afd2bb825cd8b0204e240c61a5b2417fd1fccfad9",
                "08dfbd3e27e5b2a4851a9973565071d758cc2a499c0e995bfec5c6d5ceff784533ba6b91320fa975d29770b8fbd4f6977cda259d99b35e4a80ee2b2dde5f3df6",
                "0913da8f8df60fb8e15b6b4d029cd6271a451cdd2acd6087e20cc11c27b97428a342f0786030b1144bfc0a7e144873b4c67a179b0410617f6449cf2e553980c2",
                "09f4cfe48e31e6cdda55ca05c998b2fd45a7c20ea483a97969fa45fccf02f9fe400a89dbdc830d223055ff9cd0fdd217960f30b1a935b7e65510099c16e2ff07",
                "0ac26c52f5219ade49d364007ebd3a44e3ed44922d2b3c5a06ad760dd5191298895064bb34097a14d877d53bac75573ae9c32382bc6167157be335638d2ef3bf",
                "0ae86edf6dd14c9e08abd0a9d54e5f7b97c6661f0a004169ac98c82f42e73c6dafffbc86f8a000f70d6c4f37a58d2b9c8599e7b49ee99b7afbf84e26bb489295",
                "0afdf4a945307d594bb2ad530b571704937b23d28f413cf189fe1dc64372e0c8fae89254a9c7a7bfda6c75f412c8f506dab11301c4bd179165b9aae460bb5046",
                "0bfbdce8cc864eaf2c4849b3fdd53e9f4100d2ff528af94cda97c460cfcd13fd3a7332c8be0bbfdda918b624522ea24b1f21f20a97ebaf9315cca872c3120815",
                "0c5308a97dd51cc8ac21de336650ea8d6e77663d018343b2a15fce8a09534a36a8aa3ebaf8108c64bda02dcf7858d4665012622de702edd2825200cc0887b6f3",
                "0c6bf67821762116d753c9b48ebed8a2ccfa0a956d5dbf19feb0ac0bc2096154ca288ae7c5e324a3092db395cc24c64c6a4e4fb0e01429b7343cafc7ac1b2e13",
                "0cd4612fd2098811df394eaa5641ee59ecff912a56b906bd1dd285497c2b397f098879ce080e96e778bb38c5ff43b9c2989f09b85efc88aa30591ee63969e741",
                "0cf5e0e5c6a9e3c10299bf614d4112ff7d6a9bb42a385fd29774bae1ac6fafe26a9716240fd7a6b0bb7a5310b6db6824383b4c6e690228150e97c3a8a3d057b3",
                "0d0a943d348b4f0948da443c4d020b2e690731955ce8c318c0fb72663cfec3cd3458488ff9ff9cee6d221c85771b8eb83cc087dda37d4109bbb1614039e5f565",
                "0d4cba8db6529a4d0b6b246e41284b7914df7bfd512eaa2c52da6b24dd4d9198349a20457e81fb83db095c67caa7646bb7935c1986316f1a0a6db9e316d81410",
                "0d87fc7b040f240cbaa601f64f25a6e3cdb82b7739c6e93482666a92bda9874b00fd00531782987504fc667dfa34a3e6c15e3cd5a94c14fb1a74a344473b43bf",
                "0f9896a93ff6e532698326c03b509a273050962a457aa5ad8107a6af76ea72393453ca492186219fdb2c10e67edef7dd4ed41d83bb0fffaf3348594a6baf1e98",
                "0faa469c898bf1d272ee49ea1674946bf346bab9859719c13e04f08ad12600a2cddbdef8f364385fe4bce92d1ef75f359c77a3d4fdfd14983bc79f54942ce834",
                "0fda3b4b90580362553962600e3090910d952fb8aa4974c325f15ed1203e77f71a2e7d728d41c737c1a951acd0907b13a18dc6fadf2c2ad14dacbf6a25afaf8d",
                "0ff19536d6147f61b24d50c0c993a7a687df4d253c2052e4fa30b1624c87e60075649d888f51ce71318fb8789cb378879091aba020256d66ac19f024833c3e63",
                "1068da151ee1bb26fb8c060d5c00510ddd4d4984c373dc44f5201f4135b49433b17e3f642e591df327f2bbd84af7ad3e98d96e4fb77efc030c82e039471da9d4",
                "1071c94c352ea5d87399cbe3bad562b96425050d9f49f9c5c651aa34e73d8e785646882fbb3a316e933b7eb1b46d2beeee42d04821d1433db60db970f2051200",
                "107839c0a57701a2cb8b87344d30ac8f93828c76afde5d281264928a93715f923e4ec713b727979c85c6f6f4024eff43a326b31723e343c6cb5ce2055b8351b5",
                "109cde7285882102cd22266e5fb429f7ad91e5cb18e0fc4f24c7d72ecb74eaed111fd615756802d7f79b8ec38cd4fe52269ace4a3d2bf7cd5c71a35fb769ed0a",
                "118c00708699c6554615ddc94256b8bf8a8545fdf703f2f1e3a5dbdc07706cf7c82be2e6948df7b9f481be3df8bd6d042032703869879a009fb869a7a7060b05",
                "1271092c6cee6d5d14ddcd799955f51831690b48ec5445c701c923a44980a68bc7a0515b7aba881cb468492ab894181d658fece23dc7b4ef82dfb051c563ab15",
                "134c9c37e85a05e6cabd34767c5ee1752e4adea96832718df633eca1c5eb88797aef68abe4cb7b3ddb1730bc5c3591834fd6a56bce2deaede0caa9eda878b879",
                "136efe99a94e59df73d3425a05b13e29967a40c2b9f0be28cc3de86d27e710246d11b1470279329afdfd0cf1b72ba3bb9bb713496dca48b4edcdfaf8367f1fc9",
                "1378866a4d2b6965c03eed8e48e03fffd089638acdf1fa82ed20a9856406e083f0c0e1f5043c4d3bf67dbc383f7cd28b602eff1d8bd8bf8c1a0191dc98540322",
                "1393e3f967461dd80890f3087d994c7466df15bbe41ab53db28683300577164bf8c12f2bda23aee4bb4f17fe51257f4dc8ebf65711f386a9961bb96df58f8ed3",
                "13d56c39e733c6e0565d12da0bcc8fc4051c044c96614bfd9640d13c0b48c457ff57615c211c1e65abc6ec548cd423a91fdaa47829636263ad1ef9c07a086d2f",
                "1526f886c7231480fe818b2d1ddd85f98be27273317ed6d72fffe4cb076871dee3d817a92e8a3c3870d2f17e9d7e39e931ec748a4148792ee534f153523a862c",
                "16007d187c2d9cb7b839f3fdac357834a33954377b0f6b4fe8d5561854ef0a36ae35ea2c6f0df8ceec23002b3a610bb1c6b722b30efa9761a6a1586d9331f6f1",
                "165eec91a4dea076e82bf335bb3cd34fa3e08336dbea77d59de08695a9c9abac189bc62c147b3954c436eaceb94258bee1cb7f897eefabf6bdd35852ae9c68c2",
                "16eea6b6aa312a175d73b0f39dd35a1a8d8670fa7548f50b34dd93bf20d0f688acf3a695f78c0508e6f3f9616cf16399cc635b5b9af72e1ee2f3c95737396c91",
                "182fb8091f29946e36319a2b48d5a218a26e51212e89962c36e2dd642fd5fbbddb2f714a74a5660819b66f3970a1a3595f19da1a8e413052db928bdce1fc45e2",
                "18524af8092c3df0fed3dc88d49abacc8e6c5a53211bdbca06dac968befe7b45245e40de4b9db30cb6772a65af573a664c89726e8af851b8ce246b70dc84f558",
                "186eba4b411a167acfd47113617931bcd4ef4c672b7285a6f4e4af3fe3ae903041bd5387d7e385650cfd0c8f47dab312b26b46ae02ea723d62938137cabc02cf",
                "187a342e0a1a9fd38f450191b6b18ecd4ad7f541c9395d0da150e5ac6acfdefeefadb6f92649c853fb7b8ab0fe5abed87eab68a02a79a83259e473b11e174adc",
                "1887c37f4187a4c3213ba4b58d0ef15f903a3720ee94d5ce59c33db193f60db416a4d9607f213ae44ca3eafc7217fb9871e2ee1837ad4cc0f34794e5c543f9f5",
                "19b58c23bcd3675fc2d5418487f2e974939a5b6f1b0fa966ab08740798dc91d37eeb8e48c775fbcf5ce2fe24cf66968c1616e5491d3f180c4888254a3614490d",
                "1c80e9d982aa0c12db8498e8275b2281e638e8e5c684a752e19f8f9842979b70a3624785d0c30e0e57112950cae5e892bf554c295c74cf8c82c8ec33c732d8c6",
                "1c9de0d86eb73f36f1d4ab9194c221db3236d86bb6950d614e51877638a4a329f5b2eaf5dfb6aa86bcd79c1bae8719e344330b90d1dda6c15fb5e702df31f1b9",
                "1cb2e161fb1b512d025884b435c26a4e1ab20cedc5d56af11e0a6735e2953600b294828449fa47861cfe11ff36fe2d3a647e68eb47c534e41d93f06df5e824e6",
                "1d45d5978fd9a9a7446ad1a20a484a06dcfedd4fbb86cc42c0101b84f50448f27e5642749c5c21003fe4c1b50228d4b6a0270e6975c364dd2024adab775fbdf7",
                "1ec6da76ec354b0b5ec17e2d16233a6d10d2e993472519d0dd122aaca6a6277c497200f273b170af45cce5a00147bdecffdcf158e117f10540b82c11ef786faf",
                "1ef17e5e0923aa6d1ac07e32b4cfd91b459e33b7b5c4445dd66f088966c91c46ce7e0d7be0917b30fed4fca6cc8c7c72adec6859457d3085dcc9f06ad9633fbd",
                "1f50d4bd740c1cd439904a56e64e59a67cb5e9965e1d3e0a9774873492630da9340046c584f13a19ff08713155863433a1a1e0dbc7adafcf2fc1136acbaa5459",
                "1fd67caeb7b78daa5fd6d5818a3e2fe166036c9edb29e965d0856d63378692850b159a9c48cdc01edd2ee2650c083fca766aba32e647f5d17ff55c94c3fdc881",
                "2062f5f6e680e393933cedb8d90ff41dd64ed626de023cc462f2a609dc0f23f6bd6a9e380b35cc27d0f77d7fd2ab4a8bbb562b0d1e4be82d8832871b7ff3db29",
                "2116a8ccde396c144a867d12aa70f0827c26210d986a3d9f3c3d9ecab3808111806da7075a7a67ae83fda3133f0f0255baaff900a6be02b73ecbea423b6a0314",
                "211f423a1c7e66dada67698eb58686ff1c8eda5224c933ec37e36d40364442a2b7f66cc51bd42daf1f3e61b138d20aa7a5060a9a360a3c3e88256f4cc721a332",
                "21e533f550c8ecda080ae2f7447221b1b70ce389b9b427aa4cea291af041e2bc3dee42f6c32f216b3a7428802a4338b59b41f6e346e2318f2c519272b380cf3e",
                "22cfb76f6eeea48ab1365cebd6e0f403297ca526c19f01f44c38ac2d7ad389e016df1669679c553ea9180825d0c80649b8fe3fbc7ea7d5e834a3008cd0a240b3",
                "23e61646df35b3f44002fa26cfb237ccbd2d3b406f2fe3494a121e81f8cd61f2983d5a73ff9940a44ab9d0a92587175919f8d4b63b8e715d14d560e7975511b5",
                "24465ddf0bbee5a50bee39527dfac161c706b945aeab2860aad0199d85ac1a295c07e67c98c895bd058c6f40a86936578595655506f7531efb46c1d9c417e36d",
                "2484ec5ade2d6f4d4f4018c366912fef0116608a55cc756d241646e2e18fbc8fc1cf53e04d9234e02e2054197686160cf9b647650ade74a1832a774c89752207",
                "24d5dceb05804ab538c6fa12aafc2e4de755b65af04fa2636aed9c4af175483861ddc2d97119e2253bdb8ae8fea29f0af7981ec44539f4f693e9a6e932023a5b",
                "24d967d0e8b84beb3652417724be81ab83c7834afaa7b7d3d7d9591b1a2a7bb75f9b25be548a200570ebd6cc34e91306b675af510ef91cd34a77060b65b9faaa",
                "264264121ccc668f17ba9e0179bed31143ddc0b39c02b2fced4f26fd9120ef21bae472a0529dc2a8a3eca91bafbc352c7b0066a3467beba5571efd3a0c6cb349",
                "26618447df952c15a9d87d9fd371c5ba143f1de7e31f34392190f02869b488db0e83d1ea35d2d4fcf1e80e0def41f6727d40eae366df848888ee38397fa55a9b",
                "2668908dd352f6bb401475c0d4bc482dc3662632b1bec63855921e0b8f5ad1df1d630e88c831425219c982161abcebe96a9e7dd85dc72f5393c771da09754cf2",
                "274663066bce8adff793558c0aa0a5cb64b033cb67670a302200bcd7e12da89a9b01082685dc2093513fb7290a35a912922c452ee4e4c9846f4ea4f5b8d9a32a",
                "27579b0b965815c8e5031f66e97b85851bea64420767b1016499b3c141881aec47ca90312eedb170f83843798e0dc22738fdee965423d7235205e8fc9f5b35ee",
                "277d859903912524de654ae7e3f63009a3d0000f95f4a4d7b5b82d66b307e9eb1af8881e38655bed0fed06e8011cdee2ba7c85ded46c2f989c757009e3076c14",
                "279663d44815a1ccbd2e1e0c3fd41f70f7ed6e715465261f8aefdebfa080357d3f5b399b83796544f9c5d9fc9f8928db6ff1241ccf24f5da267e976a11e2de58",
                "28249c711a87c2c4ac4d54e7873ba5a057a22efd63b488583b33a98d153a874764a1df879231491c530dd1ff498f2ae6bd3eec386bbba46a12055bdb665cb5d2",
                "28ae9a1ddc5d30b33291af35f6fca948967c80b1b4536a3eeba3dafe94dcc39c17b0b1cce0176cb16fef0a34acdee2026b477119b153601ebfabab60128cb4a0",
                "28e2fe1944a593c44c3de0dc52971f040f0b8901fced2057025bdbafa1fe3b042be19618044ae085d7364e3cb38601e9ce4030329f15af7a0898f9d4c2c5014f",
                "2930bfb00e4b26cc7776d7d8025ea2fc5988dde8e68c64fcb45fd4cbf87f5a7f6984bb7e6c100f6aa3356cb7e2dc4fc7024bf611df9c86367feab4997ed48ac6",
                "2a3ef4a5fad8ead3524afcc0b3b9a2df382753e9a7fc3bc63a47efb8ded29bfd977f98c3f3061d9aac67ed3d63ee804a2bd3c3fd12fccf846f1361e5485e81d3",
                "2a7bb3ec9f9d35bf3024ea589ff500dce5ae7590fefa354b80bfed3b81fa0fafd16fdf781a12b11e05ce59714852a3fb26a177b63c2062e71f8980f990af8c13",
                "2b61c0b1f0c317a38a84b5e7d96d883e4cc18bb8a5727e6a10df7fd8cfb9a84de2b33d9f97ea9b64b838e5eef8c899aa3d138527a54c3e29715334a64694ba9e",
                "2c44f63029d7662a8107a3622b220ea24275ae736fa0370218802f60f8b127f38d715b56c7474d24e3198f04ab35e52b3f064d838aa9f8b39d083a4c7b1e0b87",
                "2ca2a8bb762da136f9e9135ad9a00631f1b7964638cc983b077c24cf3ea1324c34f5b276134cf20639cfe571e462e381f1c983ac1d06353f4d537a21a4d33bb2",
                "2ce84c6ea6aae52c449b6d34cbc095b2f2c3e6fa20d0e48b2f7d223724ae01375e92a8ad106b029f0562ee735de36d9bca6cd167257c3f68796bd8b1a0ab600f",
                "2d249d25d286c08b460d62bf2a39ef7265083b103dee2b04461933fb7b82924d53082550d246dbfde1b4851f25ef8ffe36a757a87ed668de301d4fb38f613ba8",
                "2d84f39c2cca33dd28fee650caa022c9a06407462342fae8dc256af7904cdd114af5b4cc883181407b8dcf2dc4a93d45c62c83a317d84e876cf710a521f20d80",
                "2e4b6ebc42a60a006db0a339074484b716b0e0fe48dd5f52069272f76078c7768681deaa5032174f803a0f5c4b39c789844963782088a703a6551903429038b9",
                "2e4c5ce9b700173e9dc3e4847bc6a4c7fd1a85b4fb109b43a76b9b917c05160757c248db0b613e6938aa1c76b66e2ccc3f3361a381d2fba4c074161cc868234d",
                "2ebd5d1721c12b1ba62a12b474b368b0d67fd026a88354e4213d5d887abc084efcbc300f7a20172673ab1a236a25a6353f189af170b5db1680d9bf80aa85190e",
                "2f5536ba6dc7d8e76ec8a5246235aed684faac48f165350b5a44652704514d7aedca474fbba37786bd502025a29c98c100b326711bf109af66b555c3a916e020",
                "2f5d4be3aa1cab0a7643870bb9a31885453611b3e99518ad5a3b764736d34c67dcb3c7c79756b95ab74871e20e1477afba4cca593a677555db5fcb3c09d6f3d6",
                "2fb95c3b786fa65215534207266e034b294317b2327ee0928be3436258e42db8f4479e86e6006979ec4438dbaa9daa05be21ddc66717d30dc43e36ead349965e",
                "303e23fee8a156aa9e8951e4b219dd0895130a4fc4134db2b2e4dc3b1702328082cfcaf4f3213ebd28b14f66c80448c26cf4c242063f18a7c482de111fd0ec5b",
                "303e65b9248368b80fa43ccf0530d90dd9275db06aa3e8edfc59159ece318c1224c156b782e07f55eee0f5bdc38d3cf91f4266d72d1dcfcc55ee4f54f9955801",
                "3069382e2ab2a440fd781e3340775c3d55c4584bf31f546c172dee9526090cbd0cf4987f7695725c242c25240d678a3440526af486b374dfbc729900bdf7d9f0",
                "30eaac26f8d0a6e02fcf54bf97be5f64925119f82becf10bb92808423e67d4d0250f6ff3084a5c79191ca5f56a517357db5dc4f321563878379c2496b95cf19f",
                "30f6781f6151308674abcf8dafc925ef382692bec57dacecbdb84fda492c737627d2bbda7c38e4b4df52f48b0101724fa93284bb73125656f6507a1337476500",
                "30f885db84a341ca4ac9703b51b440682bb765439e0720bdaee3034eaf79ce697d10d80b56e33bfb35217ab512d69530bf7aa5424f627c169a440239b01b9288",
                "318c18fa25d849d9b2756fa4eaa1218d95da6f2a7e9a6ffa7ac2d161709a8cfaa2c5c56b1bff6661719eed061afd4ffffaf0f7f800f23c1da444bd6111a1fea7",
                "3237cdf733a72812fcc93ebc64be14ab9c64b43590c377c3127820b6e28f0e8494cbfcd355d2b4a76fec1b87c63ddd164c10228e1b751eae501d79876fc431f7",
                "32874351d55a3e3ed0586fae43a5996338de6e0c118a405f1dd6bf80bb98b6b48236390f60e901f192c87c610c64fe40c00c289819b6ed01afd5e22b8f82860f",
                "333233e71418cd2b2cd8d76b5d67e3ea4eb4fe8df172970c0de351a515d11ba87abdda1dce87e84dd6ed746f64a15190d8cca9f8118818e0af42b8828f345a30",
                "337c8c55dbe7ef2b1f302e13a6ef5b6a956c1d0ea303ebea2a50798d9a0b7d0789f80992642f1db8fb7e4a2044caba9bc7782acceb095bc24b173bb7766036ad",
                "3458b379c7d84ffadff192f3916cbd8d4dc743278f3310413c60cccd17a2415623a673841fe2db609438748181ab7f5569d8444800929770fcde4ad77baa6b45",
                "354108caa7e46de424a83747862beb9c88a4a337b456c2cddef36d7733a6fe0baf93c7bd0bd6151e2ab9a0c9175c89828e7e47a9386d58935d461165990795de",
                "35b962b08846ed7d8a4cc47582a4e607f5ff4136042ce0b1adb55d1e8d58e2dc1abc5807b3601a7f7be1ada5939e1771e128fc916c1b5d39ed3619e251707952",
                "369d7f9bea6f86a360e79911299a48b1439a6ed333d0e7e454dee1fb8b186a451715462e58c0114d282efb8c5d9eae87227be8482237bb709507ed78d17115d0",
                "36aa2e29100e5d6b2b70233cc7e8c6ee3a10387353c578ee09ed741e77a40573765caad2fc3219fa634d38dc45df5b62072c930b290e5b1ab0f8acc22b6dadb4",
                "36e6f88224cc3b4718eea5d4f2900acc426aa09aefc278ae5b2bf935b402ea5fab4f02ce5e389d60904630e6ca437431dfcf2e85bec806fa0692d174f4c866ad",
                "371e6f72ae5ed791e1f0f34e9538a469a633ce0a1e98e411541572155cd09d29340e087fe3d1bf2687afdcc758c378f489cdc3ec5a9deec6ad0d167ae081cd36",
                "3723bd65a05afc7411c2bfca904742062b7b0c081ba126e68c65d28eaa6122f69196f4959fc1795fe03f8e49ec7364863911f9b659684a06b3a126c6f1729551",
                "3733a020cbcce0ae811a771be241ffe0b2be10683ae1858c1f3c150d8a9cc7d413ce10015a7200e23511c5190642d919bb5097cfa6141eefd203fa7a94c8d721",
                "379d321bff71ebcd34792e8f4552d341f30a006b4765f8c6de4fa98d3ca416def88adbcb0253f5849f51793b3d7ca7e53700ec70b5a97e84ccd1f35a2a1fb6e5",
                "385f5eff344875a584ba5a085161ccf85ab600bc74a80bfb4d327cba21e22e57321c83191d8afdf8ed924334cce879d1f8d437552ba85db474b96658f03cc45",
                "38c854c75113e33bcdd0acfd6efe8516787b7e4b20fb80908872284ae493b5cc0d33dc7f70d5f64972ceb99c6b1c3d1e3402d49f7ac2c9c02a3ade4dc3d6b14b",
                "38efaab0e4689b22e3ff1247982158298ff31ac653696d4dabc8f77cd4eb886661ebcfb7e4afe0d847a7572d3f8af9bb8e9e345dd69c86fcab038789cac620d9",
                "39dcac9852ce1a79ea025872d9fc9620800d50795ed999ed5aa513d170e83bcbf14e70c5332094e727fa8c9655a665e327cf1d9278eeaa7d88f947f5ddd72f61",
                "3a1fe9fb98b8d3f34924003d0612206a221b1da0860a3fddff3611b44dfb9728043693e619f63c77116a34e16ca10a881dbc0f72eb58180b84d7c994786a24ce",
                "3a913b685a09cb69bcc002ef93840c83040b5f2dcd0a5ce0266da5a257d8121f38e309c2560f8f7ee92195edbf8d8f57789398e9091d3506ad5d26747f5ee33e",
                "3aa4468cd1ad041bbfcd0622a4f34206d8b993ce6a72bd5d0d35b40bbccf057d5f48544db7ea1fc3a7ec886f3373a819a053c8a87251f2c059d5c3ca8effa7bd",
                "3ad283f5467cf67e609e8c7510aa17e4ea70232849d52b21f9b64e7b5b751713974fd97eb1c566e611bdc671fcaaabfbc9e8a2667b7e9bb0692d0fbf92c2abfb",
                "3bafd30a8e7e21d22be48e9e9be7501ef5c27b33764a132d52bc915ec5873805b743d860819b751a7f75bda6f69e8c2d891e3a2be560cdbfb8429e73c85f7dae",
                "3c713bc24396edcc81a7ddc5170910330fe1c3caeb1881af41a588389c69093d56a394d605d3a7780ea1e74b7c586a02ebda40c87aa81ca6da3f132dd1754b5a",
                "3c8298fab489a9e164a170b6c0d258bfdc3229a55d65c8aadfb1e6a236dc5087effda9178d11d4cdd9736b0c47bf021225bf6a240e8ecc24ce8ac965270202ed",
                "3cd3e108a7fd03d09724d3cc605786a9ceb94f13d87a274cae9a077918ab073036bbd1b26bd75017b48c280400dee0784ca2670dbbfa3dc7f3aba5403608e97a",
                "3d9e165279ffdbf2637945c6686af49f725c0170d87f0abd2d7656d60fe19a535d2eadecc5f18cc5fa41d77f3bd3dd6a78f655d517c55b63cb96ba44f5410200",
                "3e4d730c7bccb698691c683a154f74effc9dd5ec03f6a1d146b2d9b94daa10380c24639dabc89376afbfa8fc802be5cd90d72b762e02ab2ce3bc98591dc65df7",
                "3ebbcd3d9d30ef88447be92167e549919a3168196250887036fa770be3a0a92313f768f46e95ee6d7aaf4e6c310a76a839d326f4f82d128a67de5a71687d4b99",
                "3edce970dcdfff5b300af8790f636e529a6b739fe6dae692ad1f8529c7c5dc2038adb09e4463980006dd6f947275ec9d36ef641bfd44f8354667c2844474066a",
                "3f2ea63ecdc26876a51e98b767b785da410bad5bebf9b5dd914c5ea711b61031913ad78e3221a358d7df45dafecdd4760d5b6b4019a861246b684544b7a72f22",
                "3f430e1253bedeab2c18594051fe008a7c228bbdb08b5e0519a21c9b49d1a2ed6f0343f5763eccff702374fc54f073b441786084057e07218501deb9cde66a0d",
                "3f550d741eb0d2a59d0606f92559d81d37af622a57c4ffe015c17216050eaafea6f0bd735f586801df261b726d6963400173a56eeb42fa2c0a56cefba9d2cfd0",
                "4081e290028812cf4c93365d64734da735dd1d6fdcf5574160838aa520f7d79a765a13be0f03058c7267529a77d8be5d7c78f9b22629b9583b13c606ffd2599d",
                "40bb25111c4a3f776192eaa19b3a4d7ffda5eab6436fe2e2860e6069d45b9eb67b354a6d4682ec78dfeccbfc1dd49b15c3ce004cc1897663df72d1d9aa784a38",
                "4114f1c96c9cc42c31f35209fc4976ef14f37f0cb4bd8122872c338f4d35d6e0c5cf1e5e7ae7dab8c53643bc5b3bc08150f443cf24a8430d601b58bbdd8012cf",
                "4172a8d0b1ad7a9b26636d4e8f0fe300064a91d2c4361fa842d0bb52faf938bf1c139cca6dc9a8b24a6922e5b53b223bde00c5f359638c6bab17827727615c6a",
                "4302eec45fe9e1372100f50706295be89e7aa10c8009200cbd6fa6d62b67209b15b13160a4c0793094299b4b227bd17deb11651b25d93d2b9befec3760384e7b",
                "43bcbee0f8755bba4e1b3db0efa9e790ed437740154d4f683f2fa569af3c2236f5fe5b2bf7ed1e40e78629dd4266bf92e209b8cac04cd7378a74dac463354588",
                "43df7060108fa6121a31143d8a7a7e3f8d3f3c94cef6c3d3d11d6a9c72f976760a1e7a92d9379612d48d343120952be859bbf917a8e211fcca67e07de83a1454",
                "4441f076bc285bcf9707f316882f34c24c0d7d57c525833d8097c1c0bba0d2b43b7e45437841d5839c3f2cb2bb7da6512c0678889accdda6f6c4f103c94738df",
                "444f0f5422d6d8df65a071c2737181a0110368ac69baff0b6e879d5b24c6893399d79e81817299d2ab941cc5c6fa0ce0b39852ddf355f8c3546adf054a739c97",
                "4495001f9bcaff0518e89aaf9669e220796694dd6200d8c2847f8911b95cbd58e01daef191140fa3aa5afb7a0894ba24d1f200e7d4c455b2dda4962e80a321bf",
                "44a7e6c80ab340e12dcf4de42e6b2ba09a95f64c314755a38f5fd9f4d1dc6ac6dd20d7d25b6968d349841d7f38d60c8938b76893d5fc8530dd28c2b36e72b63d",
                "44b592fd86353fdb42c347b4e56f850d59dd88e79687643d1c6c973f29dd932d31b1beab7a88f1b84824cf53ec72d5611727f36169cd049271ec6adfa2793f8e",
                "44df9141c82a1f62cd6a209d80b0558f0b9758ba862af24f2abba33a7395c63b62fbfd620c73ca7b0db980e8cff3974c9af281cc1a82ad92a361441a7a8855ee",
                "458cc9429f1fe740f093f20c3a11dd9e995942d274a3c16e4982acd88d3323aa05ddcc884aca24676a4cea186146989123fe0092ecdb08e9d4855fe27c8eb59b",
                "45904dc61c04b478b9d7121053b3335a909d956384e8d77bdfd6b25b917a919dcec4405f387aa08699799a91b12e35659d9ffc468833c2727837005ef8c35514",
                "45e8ec9a04d0e69ded65cb3618f7999eaa819d8aa7b67eb2edc026d5e125b062bcdb107523942855807f76e6d968d049fa0dc2608d3b8948985445e799e279ce",
                "462c5dfd835a67f06e5f9b1446e5395a520fdbaa4a0a9838b0367e1da6d8864125c5076faedacd6768520a378f7cbb5c5647aab095d8d687e81f938c0c911ec6",
                "464d9ac63f7958200bc09a141171355bf4f3631d66dc4bbfabd497619a8f055c034c0752987944b2102e02d4b435bcd3ce0527962871112049e1d26865b776e9",
                "47cedd877ae6e3c7aa425ea3e9a934cb2bb3ce15c1ef48aa031c10d23a894053e05e476ba51917b783c6efca68dc8af4f80dc0ba60b432271b5eab4b345a862a",
                "47dd38db92d6bfa38f04b0e5945cb9133249545f5f7a13cd136ee0967ccbddf5be558e648c76e32ecc05c3dbc068ff69a46b669e5be014a9a47a75695cd30712",
                "4847280b2adea46742bc338b4dff0484e57d69c7b88b727dbd54d410444b2e1f9e6a5ba942b9c82efe5e39ec56b87b87cdccd31a578a8a64cde424273ea1dd63",
                "4946e08edb1db30f98f4ed1cee7f597fd91fad3115e77d63c6fa2b1feaedad8809305dac450f9aa9dcfd11df34ac100a533488c06b020cf567c4c42ffc1572ff",
                "496ee598519603708b139d8e809a140ba678ca35a10dc685aac2c2451f5df930b9ac93d4108fecbca326793e245feeffb00c2f6f4d85ffb99932f4c58291a739",
                "4a086dec8db6a5b88e616947e3aeb1e7695f5e6f975b9f744398559ce1576f0f913b43d7242ad0f645824e00e152019182c25de6eab1c94d94ed0dbe733822fa",
                "4a6bad1e8fd16f2a0f87bc990eb8baed371accabad2d1073dc9cb7738af65d8106acfe99ce957dafba0c6e52c2212fd511b6d1fbd920aa17b08e958e35835c6f",
                "4b6c7e4e9bde35c471cbf5e2e93b2eb8bbba52b710acecf99910af08b3b35365f24d883ddfdd9825918c31477a5f3fc48f075080c4e97e80fecd6e1936bc92eb",
                "4bce212aca40bd1834bf741e47954526a8817ecbff8fedda854dbfc2d033a2567bd34b84fa02c3d07855f3dcf413590ae75ad6edf261d66bffb84d77803a7b76",
                "4c24f4768c749cc61024fc9217cad14bdddd22686ee4e0c5c624ca9b9bb961cd0fc577b91c66487d2f247e01d4ec092fa555834121eb58133987475dc3a05b91",
                "4c848756070d04dee410422f4fc5edd3d3f020a89402ee5186926403dfc3b550d5c5220a1803c4b51d45841a3b11cc6d27bfd82cfa24b951358f1ece169073f1",
                "4cd40894bc26d1e5365b262954d9377ecabd0b70e4739ff7629d5e82223a62c951c12775d9e81cba369f87668fb489b33f9783bcd16603955d20e1d5d206f983",
                "4d17def43a95b825c24fd3c9d8be3022ea8c0347d077842d0d07a2513b822bc5aa99187ac0b68ba9815c48e32e88ac6412c1e589290ed59522fd653dd4aabd47",
                "4dbc4d7f8944e3885d942e069e6782671152d301991ce0fb09bb2364b0093a654a6f1b5e6dfb69dd3980a09a92fd0e8f49c1262470d017bc907c5cbc652a3b08",
                "4df6c49e8110528c93406c45a0ea1c636b244df26ef0733006c3679cd226f2868120692bed1b3061f2d12ecdff4f335e3fb601d06a3bc0cc7bf76c5cf2a6ddfe",
                "4e31bcbffb4480f4a2d2e3d56aca7206b208b451a5775454004e52cdbe934c64da62badf3065708483fc37e9a16d88081cd1e56182188f9dc212ed347915ae04",
                "4e4569617603b580d10c22e478a97f6c2f6125c1ddad218b784acea5b0ac329e35a58059d4aae3d53aa6b3621d689524aa300ab493a4b8782cb324c9311e905e",
                "4e5e58a6ec7d9cac969f99b817f981ab7f8d2cbd9ab9dd0a37e45c70a8a8ca3b8e1c43b2013082062ffc1f4f3b268ea78ebb88d613d026a6312f40a6867a1d0b",
                "4ee253f033bedeba00576221b92289c2f31d369f81268e7c1122be08cb0a12d19fe7e6985a65223764bfb9adb37e03be185774fc5038265df1cd190b0991c13a",
                "4f144e99e5392d69d11ea9412b41523e076fb25bc0afb7afeffc5178418030f97bd635ea2cc7dc0ad1dadc0a3194a83d75ed3aac500753284c5119acdfa926e9",
                "4f8eb6e6ef9752996cccfd92f057604e5dec35c523911a5b3b52d3f7fc81a57d59998131a10934569f8e1449870c7a3848bfe98caa5242c81f3aac2cc7799f0c",
                "50655df1ddaf016b10cb503891160707f6f0da54d032ee9867184b759165f6fbd8122ce99a836fed55eeffedc6929da05ecac5b77ec561f6add26367da076533",
                "51795e8ea8faa28e88f02559f6bdd47d9a0735589d47dd0f2e057b8b01fd3667fd9fd29e2613f200174af1d4b2d3d0860704cebebf2b6e79f1724d6782d7a270",
                "51c11eccd83cfec93c59dae87eddb5722fc9e5534b09636a3ce36a18e74762f728b3c5cd1046a5f58b646bc8897c3eabcf14fe943b7697f08cc583c72890f012",
                "521aa8a7ea41f5aa1b61d381b7e6c117db59864ae9f0fa8405079c5c5e85b1c3815059839ff15913c9f02a4c71deff566d76f8eec0f371b2dbd8d79e323357d3",
                "5259128f049088c681d282e12210c2276282a977ebe8e17c8f21a9633faf14e71a9449c513e19d19d23607a121237e347da5c1cfd750d302590f6199c3c6494e",
                "526b81d374211f29f84839098750bd39a2644a168eb7d21ab5e6ffbb912cec5f3a5255ee7c8c8f01a3603b2cfde3c27514d834275d83b9381886e2ee477a2ac2",
                "527251684f5224edd8cf9c42d45daa9d6bbe287821820077163fd39b6572d5de0f6bc88ab8f268e8478b52fa7206b07720e7f812fdb1462b5d0bc09e0c11e4e8",
                "52c95b4a7a35a3474d0fcf27f8e4b5d454f420651d4e4d1edc1c9a2332406f8093e9598567b46e420fb4af03d08d3ca7b4b55b98764bfbad1efc10ea48816135",
                "534a4179d93d5f195f964aab54cbca0a69c82377d8b67e9191cd947a85d06c48340a6a1c591e8649915dcf491f731a7d98c434a47697754f2209c9f9093afa6c",
                "539072cd8736ff7939d6076a7ce2b57479b612b9fe5c746b73474584a17725e0473c416fa67b42f0b83d064772dbb1b56d0d861f03a59eec2e2c4270d605d1e6",
                "5394dc9db29fa7117e8368fdb24e3c5c82d045787a54ca9e179a8fa49782a8d232455cb64ec3181762d99e9c31dd00adaab3901e7457dd0bb187f25de559e41a",
                "53a532d2212750f7377ea0afd1d4d3e2f01928bdd5173be9af1dda1513532fb38c46cafcf717ff389611ab58e03fc77a26d22822fcbf5ccacbf21c4ebf9f08b0",
                "53b8ed14ddaa56fbe6231a58a33eb420b07d1331693e28348cf0cb463edf5834943322778377ae234ad8c445068bddf53a3d2f8df6b084a3c36666a9bd2a895a",
                "53e38edd901a9f8426ada8382a10e670a0605ed1f2542293cd0b1fbe55c14d6da5833fa86201ce2f63983c1b6c570dbebd31d35f466de4a2b9abb9a6283461fa",
                "547dd49c2cbe113b60c9df4a8e8b83a532f0da054cea8f1d23db66cc2638f7b5edfee820b4764646be10dbcd05caa5d71483477718a73ce8dfc752204807d9e5",
                "555720e57135e7d598a46b2078b5c802e00a85cb0f2cbf66d1fd589b6fbf148263fdf432c5a91f6519d123d0b14065fc855ba16b6e2c256f48df5e0f3ee73d9e",
                "5587e2f15e2885bf530e05b17318d525c96091839f644d07017681f053997e4e39ece19955a690931ad1a8a7cb25d21ffa9c25dd62cf2719ffc9c73efbc8196d",
                "57e5f7cc5fac058f7c772eb41f8d49bd0fe3070c41eef445b1c073abf9b1cec451aa22764490b7da4c5bcacf4ee453c3153158cb1569f2f9447807cb14dc1126",
                "587cb38fcef6f6622d7504033245106e531f80ffc16516be9b4975b4c8ff49d042b292985819fe636790d6e1de285a6f1d5a8064aa74c7b26a1bcbbe1fca3409",
                "59504fa607e83d10c44910f22d155d2ea631bfc392dc1cd583aa5ac746bcd81c9d5ca50969e3be356242aab27c361611db323b1c166dbd502f7043a174889898",
                "59655dee93f422dffce4a9ddc066d9c0c61240b3133b0a1dd9b8b3302134d3ba02b597f8dc0e07960f262a4750ee19281ce64493af167d31123ba61a58dd9fea",
                "59710d798ba8fca92c432eac2a40a1d1edd77bc6d3813dea748957c8cc7e26e4fa1ec26698105ad6fb0baec6e8d66b880c3a3b781b89575e4fd078299ff959ca",
                "5989fe24714a6297fe65de7713e78d774b59d703e3659530718fcb0930b0e8c8f3e1dc236b18d3c54ca6a5bf3f3f71ee08090705c841bd4548745afa8c324be2",
                "59bc897a03aaabda03477a32ecc3c2599d853877c455195521cb0e3f4b765e5d971bdff493d29cffaad1951b16c631b463dcc4ac92a291fda68a3206c3f1c8f1",
                "5a536d4e08c3c736cd9130ae5ffee01f5747f390190d38ba46746124ac6af021ec0e2b4975b642280c9e72661529c679eb5d61b6917082fcf4cf968b5d7535ff",
                "5b297af6729de3b65d310f261279a0312854734ed8170616e2bc019522466538ed678f41c1eaf3157fe29a05d0b51961d119bd03f68a27291136df14ae5f7c39",
                "5b457df5f9aadfe2fc919315176eceae06eb9079d27d72c4caf6561ede76482e5ad8ceaccaa55f591d03fd18119cb54c620541288c8b12ec5587dfd558b771d9",
                "5c345e1465f856bb5c7f31958271b80772b3755c118f7deea8f948fdfd006c4081361324ec7f4b1b8f0c8d255224f3710f778ea667bca43d823dd1d9025ba402",
                "5c9d1779f590dc107e700d3e9cc3396eafb85759c77a5aeb22f5f72b0ee0ef4ddbb9c344e43518e9a9a15aaacc22af0002039579fb2f337092b1d4b25a82d2d0",
                "5d1833c89336ac9a65e44ac4693cbf6e81e2e95db55565866a2a855929bfe47de6d836fd432ec76454a1c6cabc59c45663babb0aaa0f8a14b9877c83ed0bc1be",
                "5d540f5c70310f2fae54127dfd106685bb0435532970ee1b59c04cae79a4997c96cefd8131967df7c8c709f370f2849002adae4eabc01c74c6f54d371002f226",
                "5dff8cbf77e532ee7758f4eaf81a45c7953fbd572d4463a469faa9805b39140a69cc9554ea79aa8b5f5f462bc44d0cd3a3cc7bf04a5e7ae6c248d27ab89dd5fd",
                "5e1cddcfdda2f98aa92e0567716a9af5f3623fe6c8c87847c264d2e33a4f5d303c99564beb09bf741e5bca3a027f7f6ad9701a9cb9fd94c70a5525f9e8da2b2e",
                "5e628aa37c001711faef130a55db3efee036c449dd127bc371193ca9a95c2cd4fd1c6be38067e5cb4591012ade7f301c9ab98b6e58ce47cc7876011d48cac64a",
                "5e91fd3828ef5826b0d1282e3ac9c229d7ae96e39ee5515b39b68e63f0c0f52f204e74b1a05351fb7d9aecbbe82be05d419e4290d3813f1d4a3e1fda070d2d5d",
                "5eabd4ecac8c212454c8f310d38a2327d787426cd129c3a9224d1acb05c48c2300de786c62f0f525c442a02bc451fb741ae8246120a755d2bcad5b068c035aa1",
                "5ebb284cebc5c8d6d4ae438471a030e181f699c526b2507a162c767b644464942f03d1f640d8816095d181979cf6d1b0187cbec6f582533a30aef471e02a4940",
                "5ebf04dfec6c9b10a6fe7fd03725901973565a13530c20d02b4332670cce9beab185dd0b0f61f4a87f9c3dacc307d06e062d640f6550d9443a4c06a114e5bca5",
                "5f6d1ab787dfad66553c98737044b1de2cf4949fb67a617478a4e7849ea72795cc7f9b762f0ec4e46dcb6ccebbe86797180aefbebdb67eb379d932ec4e1e733d",
                "5f9da3bfca37318f83d08196a801ca3a58f70bfe0acd3d5ccc672c70127e4c4f220f5ba5ab79b7f3e314979aac5f12270bad2692f4c5e60bbe3f67de09867224",
                "606f2fec3f5ad52542bcaf616ff04f30cd7d24930f140742adbf574fcfa2fb22ec2d69635e8b9b98d6cc9d801c5864c73dae80b47c5c82c649cb7953165e8648",
                "60f33b23c53dcc19c7ba2533c1de00c6426b3c46c76ef3b18d5ab04abac012fab39d653de619d135ce864e6f3e7fa4b97c15082b9fe90c92cd5ffbe9e8ad7880",
                "6134b3c0fd64b8376b4f8cbb68bdb2b5b674a9b7f1ae0950163c3b3f52f60ae9e0c2b55cea3f762b649c364e261b203e0110ac653d7dfcf04630e904d9d388b1",
                "613d6f675161ae52520cc9d178b203f8d4c3586d6f1e3e98f62bbc59050dc191d4ee3aca8ab68de370c884f4a0bed88bea2b30cd4dc8222ce9df4e1626378881",
                "6162fe24c105a66cee731fff9a2458f66aa4deb396517b5d2b9b4932211e1be25f6b101bd31db3a7894b5265745831520009c455aca83446da4c8112fef0f071",
                "6258cf107542ca2787f3201c277a24264e580bc60325871f9f8c6a67ddd74707a219142e165e8aac18a548b80a8f5bc9a54fa01d24cd37a62ed0589ba3ce40e1",
                "62cc20b67532162c7302ec8ab5b5458ddc72699e6a5b5d79ae9d744a953309669efbc0d9f2f588bcb6df75125cb2ef96a077dc4325d82dd9a1f38359a025b430",
                "6323ec0401b28c1b06afa76760b478535101ae48c6c9367491087143287d9ff76b9c00f39dc838cdb20d65eab16622dc85143f5845791bf85705cb4f20975bbe",
                "633e7303eae41420e558e186308510783f5c234e9c639c0e6f5b6d37fca6bab766c5d475b2f330910bac93cef6982124e73a1b6bab1a2e99a2e5d797f8547c6d",
                "6396b8df6091ac3a863cc0053f945375fccc04eb4a106d414d2538b9e346ede78ca20d174261e7a8df445a7ef55dc22b5a47adc852167074654321e692903b4c",
                "64ef3f40850d771d4f8bdde4d2ee658f6e2c7808509c7a9dce848f023c3274e4ffdc1763c089ae76930c4591269ea3c92dc651ad176dbd18e4ab1e7f401971b6",
                "6509d67e6afcb5ee00a90b297a0d66930919bf27bc6d42e024c01249aacbac17c0e2a46d774c58b86fd7044fa44566e4b0ea12dba10b152bba62a83cb486f634",
                "650d1e85ce0ebcf098b0ac66505bb2bd22f447d682491f3777faa29bbe2119c5d87037efc450e8c153789e990ebf9afa526923396f66ed026d7ebeb74d86043a",
                "652cce8c294262cd99568c39c6ba8d82e8d561378e54ca6d59e193cbc494dd575a4022d5e37501204a09f6893977fb9f7c9c6112847fc40dd9de03166e95de6e",
                "65631e294674d9db6dab28dabce6470b9b413cedc9da658aa4dd8cd7e39dbd4c842426697c5bfd58eeb651ff636cf6c561f57af94f6eb10f78458708031daaad",
                "65e5065833e487bad9d62a8c4df22ae612c3cb2e48d42c2e02d269dbbed7367d267ef81613ed5846ee4e5c9c5e71cd9a530146271194fec72b082417acbfbd24",
                "6603c6f5c288341c6d182cdab4fe7695c72065af43a84175b43763023b3c6e4f94c3d43efb0134e7f9d2aaf69fa62cfc36ad37f89401a7bfe77238c6969a01aa",
                "66768a0ab52d4aef9ecf9b16f16711e58274e9ed29ac4a66c7979f18db1c0f36dff0f0cac1f8b05e4ebf5e87eab4f7fbb062bdc979f73ca02f64e015d64dcb1d",
                "66bd1c4ff16d208ae3d0e6e7baf28e8d6c36956fb32b1e6b75f4561dcdaf08a580ba7d94d793b8a1e6927379d22be00b63a228d339278102909db87a772ccc06",
                "677630e894b9dd49fb7be6b7740c551fcad88f7be9c08d1ce0b0206056279fde3bea3fea8135c62723671d17e2c098a09e03409c43611137880af1a944b1c9e2",
                "67c893f9ab208eda2240effc8089ce09f3d7aec878ef12b968ba914b428ce4727f6aff4369d6e4fb23a4c87f06cd063ce811d3efa487e937c8ed5a2b82222284",
                "685b8192df10f13bac22b0a6082dc80a46f2114399dbc4f27b35f161a06d76d7236b0dccc8d1497e34bf3b14172a1cbfb656485757c6c26c04f1dd1a810d4fde",
                "6884272496355bc3cf5aea27cfb8cdc19c3af7963442be54b814079b24bcb309cef908e5f5d451ae4a9d7ab41d22632bef7242f9f486fce075e4fc97992e7c82",
                "6892c6ba9f66d0d7aa0445139081dc82a76d9ef8c7bb049a8eaf090f76c06cb4f1db05739038d7e04167569bb6d0fea55fc15343f7c77cd5a3e2d4c5ed068290",
                "68a142a8cbac55290125b4da552a71b52c8ba215a6a36eff2a1fadac1f2a668c95f0538cd2a894ce45003a0a0b6338c3e5cd65a202d1707faba84709457a5cf8",
                "696e8808717101399ab7ff16382db411adfadcd60c6a525539b0f8f88d84b448662fbca212b175379ff78ce7b2e64aa4b4e96d1820ade8eb2f742295f744db7c",
                "69dafb41ddc0ea2785719305fdc5c8d79c4b2829d9f3325bda707dcaa553f95c5fbf4b072970d9004d3e31543fcb2c55e252dc904c4fb5aee2a5e5500df90967",
                "69e0ecb3703b019c4779dd6e8db7f2aae830453d1a850c0521b75490e683de1a197f7134af651afcb82fb53b7eeb0e8f407b8de88d2f2c00792ef9525b085347",
                "69efea85dd0c62416593926f1551c9b747f8d8be2530427308491cd6171e0005b63f0a7af6a40377b13f85241298f348bf0421c33314f9e215a781bed1e8c948",
                "6a03108cc84be66a58c627734b51fa36842284707a17dcea88e8db5fc997537313a3fa8bb32c3545244cbae9f2f94ea19a18aff83fe9fda362f5afac63470333",
                "6b6145762c3b78a70fbd182e56f03660eb44d49c0f5f235cb132d342b5b170fbfe165d9096362bfde10599bdf6aba1983ed890a8a688616c30a0f70df0b3e1f8",
                "6b6d86d96c34c9ee215e9ace7b48ac9609929b1208693cdc2ec4c49335173b89f0e6fd4110cc220cd5e666ff5b4c66f2ef17453db6c1256cfdc431f2207eb15f",
                "6be14fbddaa1309cf2096b6ffd5c74d204e8ee6cb94541c63b24c78bfdf8de376711a2d7305610f2a5afa4e22de3f258699e211ff98fd5041ac54391a7db43a2",
                "6c7d6e53fb76e37a09ebdff4442f4319e41890322bd4c62c1ee5a7ae68ddf2a57501f690855789e81cebadf04f3f12ccbb1ef0f132fbb0aa176c4841de2465fa",
                "6ce00893a833a23002c74168368d73320c5a98e22518a8a7b88b2b66ff2b274e8bb39eac6e4e86786a63d350667c461b5b5c5ebd814bdea8edf74bab3624f53d",
                "6d6ab81f1b73be75fac0f431ac6b6a7b41433ea89f3a2feaad83ccc46295aecdd83cdd1fa06f49a66b22c1957cd14881a76b8fcdf3cef142eddc8e7321ede04a",
                "6df06b1d6117b1191647118223c2f54ae0d9b673418e24e3928c8dba76eef9adaf7be82ea7e0c5a5d7a91eab6eda863f8e42761b438b78fdd6e8c32ee044d4e6",
                "6df6c2206c5c2aea2bd9bb107178e9961b4c0cb25a9e8516eb08d48b9fb25100d4aa0b0a2253f803266244990c59cc958331cb45bbf0aab448f6ea5c94ad2525",
                "6e047fd8595e2524dfd3d4c8396c0ebbbc5b4314c177bc613d2735f0e778560e7be8d08d1f7c2218523559e549a9f9a177be64f1d6dc6e83cfd60e186d0706b0",
                "6e829dfce66bf2d2e0c112b0a052877b4a62f63eb669db98cd529c44fc83793f08fc17ac617f754281bca2eaa889e5affeebe06d895eaefdae5794de2d5dc705",
                "70e05e6afc2090772b8175f2a76e24ec31fcf83efecddf2e18d253973cd6b245940f106888b3b1ae23ca74752a02b17ec129cd8d86f7ec005b39278661e2806e",
                "715e103ea78ded4d69341c2a6d1794e6b17498cc4850d5dba64542f579adab40d38b0c91a97139d811614b8e37d54921183406c2baf9ae2388c9490f1c91c230",
                "71b67ba5ec75978632136441a25426dbd48d4c0a55c1a5fc91f0f952b6bac06ab0d9709f0a7bb5a05393499135b76e4d722c7065fb636a227ba58c7fb86438eb",
                "731c421145e6be6608aabea92e93097d1556b34f20173ef322ca3436fcbb4df15eac443694960aa0b1775f8a376351535235f7285c9be1041e402ea54dd2db71",
                "73c71f96a57cea5019e667767389066613bec934c61398e2e568beeb3e686786e5bf9ac781f8f335ed91e75103e2e57c980790c6bdfa1bcff381e032be4895ab",
                "73d3685f3e78183724e3362f6c4288d522b54a8d2722197dc5ff5006974c1529dc562c1cbb05f023da4922cfc04340eb83b887c5343041febed1ddc44b22f9ed",
                "7489905392462462ff986e4b0dd351876817cd22ea2df8a32ef2faa10f2f6cc9b065c04f04d598f8d9e8b313c2947d99aef0bbf5dea2b0380f7d561f7991cff3",
                "74ecbaff2a082e9d9cd072fc25586c3b3bb88e7ff0e5b6b2f48bb43af1a56c0bb85d16ae2e674524a53b31bfaf6b515d469861de50f711a3d2b454876771adc0",
                "75e8d8552569fa4f3301a0ce129fa75ce80af7ddfe0f65502545b64b0cd98fd9a1f1b98ebc82c9c564fd5431ccdcddd7d1a96a0d0441eb9f97020df1b11cfb51",
                "760714ccb19a117974c33f6702ac31f78cb064a73a9095acf305a9dc9bea723529b287c02dde5a07e89c67724aeed4bebf40e2583a457befba1403cedcb90e56",
                "7638395f7d47fbf631633e2b899044e82e7ce0e07305114921cb0696551966b09993766782aaad70fa40a0f7362be31940381653c659fb73d3e1fd1fa45c257d",
                "767a56ec1f9a7861c0630e53555647cc162ffc2f31b10a606e35adbe125a5051641259ea2d8f59f7ab62d4f72c66e075063dc712408d5b978f888fae2c76255a",
                "7786bb1b201ddcd0d36ceb31b414f2faf78f791d36818d13520c23e06d2bb1651543b137f702a44284236c27c7aab0626085f87b2ef5e1e078c21fbea6c82403",
                "779764bc590ac24ace5ff83e13a05a3896a67a73cb02a19cb2e8706d9ca42f290e6a0600d1cb176e277deababb1eb95c9b0a4b4eb509e61dec4bcc59d4a458ad",
                "77c47e02fe6903a91abcd3d8ff66e7c388ffc289a8e15d77c83abfc1cde265c47899aafcc36cb5c6c87c33eaaaf0e58ffca3cf57b834b205b67fa2fe49a1872d",
                "77e292176f1f3875a9107cad2c264725ac0c0774225f5d81a5be3996fed06ddba44146c3b069c11d18b1fe8d7fa68d61c1fe2e7862e49b8473a7ca9aa1ecfbd2",
                "782d2cf359e50e4515356295017e755becf557ebf6fe762ab1f1c19d66c5f5304f59334e4306bfb8ee5b75dbd5d4d7c14dfc67fd36e0397ec48c9edde36b2b14",
                "79422e752fe24f38e91fe03ab2e53f06b3c427abffedf4070f58c76f1b8ffc4e97bf98d058fc2ab289449e89de6cb8ae5c02e5d37b288182c9f94e11e4f0698c",
                "79a830901c1bb0e27663dbe14d13df91d887daf0eabb6d3eee7f09768212afcd9cdde458d13042a9d2aa099f390c79ab94f2c1ca47fe0321f6c18973e437cdd6",
                "79d42f311ab89a23c81797fcca29fdd78aaf244d6817b97a41a9a3a9a1f2c9c83e410a80b49f0707d7542e51ec8eb67d9f43407571c36b8c6ea2484ba6703f6f",
                "7b99897c6ca2f69c39d2a5e23e445d6fb7458d13af3d4fba5529f395f7baf92d3f771ef8725a6aad6a8577bf5bc6ac15bd794d202fbf5dc5e203fa3bfa79b49f",
                "7cb662cf4dceaaf1c83a066cfe754dac1a6bf20ab682d548415adaf5d8116a66ae6a184b21bf31a30abcb8803ef15f44a92140b7689e0d2e66e063c5ab431832",
                "7d16169eb862e3221019f8a18b5db05c4c6b4794cb4113bdf4d0fb6134bada5b4cf06d4927b8e8dfaa7aaf69deb9785ec26657ff5c4ed4e3900266255b9dbdef",
                "7d3bfd315ea277db2ae8d4739c111cad271808935a4ccc0ebb59f1dce46c41b05b05b4eefc0b37a2c97ebaad9e26fc73ec102f34ddd232f3dd43427824bfb4d9",
                "7d7f54e888d450e5e48a79d29ff564c251716f163ea2ce5fdd888c0661053dead6192c838f992ba08a0b10f43d2bc11fcecda56aaffdb05f85def020f3679e87",
                "7e589b5a4248ed70a34d504805692108c1ee0aead1a71bd320c2d561348f482b05a8d660a1a398339a12992a4a0e2541c200d8c01d73a541100f91b789d12dbf",
                "7eeb756524bd5007df4626a65c93dfddd9d3b6fa8193ed7ed5edecc67bdfc59f54f4604753069ac47e3361cb29e6f0f3d1adc0338e7aa47ab2c4ae79053f1c5e",
                "7f4d75e3cf74e0c6cde0074d7e0ab82f2d6c9d412435af97997cad01190118d42fdf5226f8d6aaab87c1cd603735ba778b741f81ea4763404184e81109d3db3b",
                "81270fd55dde367e0eacff226f8b0e59e2c243ad6f81d379885584d3676931706f97f28b52f0ba6e7eb249c215cf8046dd741bd3f4ea2232b483d6782603f47e",
                "8162d651b6211f06f655a69cd7fdd383d6b4287e9ba132b9898ef9ac8687349e777626333d23bed93f9264aae965efb14ed650cb64fd0ad90494aff903eaef11",
                "8213916d62769899ce77909e701c5b2555b2adb73b24ffdc0e90da9e912452f4491f7a9d8a202fdb745654419c64da29861e12e8157c1b842f97b4cf08745a9a",
                "82a898974c8717132b5f96fcb929588cfadf0e3cb14f45404d03186cfa25de59e0f572e9ea4cfe17e81a136333d7079861cc099ba4536e15b45ff0d31ed9fb65",
                "832e6668632f7adcb70b085d5bc95da7c529347446c1e40cba19a58060663181d7c33e0384d73497362c017284906a909825684c2c99625890210ee8e494e4df",
                "83fe60e31a9fef3c4e27bcd4da9fff1ea275bd9b435086aae8a1bdff041248d62f8574af7d4f2d9a4bcd96ca3d3cd192c922f63bade83225fe9fb3ddd6ed12e7",
                "843d2d7778d40960ba3153d0c454c06afcae9fcde3ebd34abd697992c71d3794f0f26f9c48b064fb4a809a1ead0969e290a546b7d7452cbc30699481ca0b4522",
                "844a5a8e2dfcf6612d1897bfc0f5b348898e7b65b35e6aa0024f29e46cb032b08408e19560fd5861cb65f200b2b817a0147936353fe1e0051afa2808e3e0b19f",
                "848cdd4a84cb1ae23139a871f73804ede3e5dc47b72e05a9fa28bba9de0e44e97f3f4b9a69f6383756ab65502722cecc74951602ac3653a2f5217b9624ef4e65",
                "84d79206c1e40f83fb8b1bb0ca219fcffdbd794102e79ea05c7dba178935e4606ab6d55a3d203b0d8e7c3e5a6d2bb8224f24b7e94ed16fa81a76e0b136ff3b16",
                "853b960256b996de7dc532dd36d6f422cacbeaac1e4493ff19e07c12c4e5798c6f34bf43aa8370992bd279d8ab8c81d9d7da1112111c14c5464ce3c379b8661e",
                "853c02f8c1037614afc9d249cedcce64177d32c53c3a37fc2287c48f65b43eed3175280af2dc801d06d47b1a754a302cf9f01d521fccb41b274829c5eb070706",
                "8540dce89cf95996002344463ec0cdd8a27848b661b586046cb69c1c6f6ff1785a47a4145894a3be8d7784f12a9de549a67e61881202eb3efe91e368a919c88e",
                "85c9e13ccfc0d67de10281b04257d8ac0c256d2f9415e54148fb59954c0d43f66d3cbea43ea6389f8407a8bda8b1b1becd30e41dfbb3dd9bebbe69816d096fa9",
                "85fb8d7edafd093fe30f947bbf086bf2953d02457aac348047d0794935029960985a6be04a316295e50bf06cc9a441c2285eb6bf22fd96daf67abe8b49344baf",
                "86e66bf812fed3d03c2f1e800659e214768b2ce600c0b1bc7f6080cc1cd319fbd736d3385a488e0f27e7ea6ee71d4aeb5720709f45a8211aeff1c97ce1048325",
                "880558f67a78dae842dfb2a296055a0183e224d02007dc3044b7f90f58a5e89bde7166da368d379d6185e89a2bba3bba054ee59360d5a400aa412240b249653e",
                "888b0279a26a0bd834f95bd04e71dba7eb8293b85b2858baab0a52b2363c43d246cc7f53a69a7062163f082c75102da6752135bce546a8f4ff6d017ea3c2325f",
                "88de10b6810aa36c43a70e0a26b2c7ca94f89da03bdc79868d631b9a53a7831f579f51f490c464cb30425896ae4b2406680e50e30d1b739718d35890d85a0bb7",
                "88fb1d26c6ee567ed26e8024419c2e4b2092364dce3a4c20bc4fc099050af445f0a232d893548af305ff4ada777b4a3abbd2915f58f939abc3987b1f6f9570b2",
                "894bd433b4b06514195a604961c871649e108d210a41d5cbebe76f78cb6270b7708d1c59d6cb88807f882bb154be1c9058a753e2b6a95c3f4ac9e27a02036f12",
                "896256329fbeb5b8116349c31d8a39a7d36d5f970d48558e1db5417d611e240e4dbf473f6e49137f7aa6116394b7deabb0bbec4a014896cdc9484ee91458117d",
                "8a53d20c2adf4d9d691596108a2c1a3892374e1d72218a260358dbdeb902885ecaee289fb75b03dd9be0459c2e8704d5361c8d03e7ade0ac8a73490cdba84b37",
                "8aef606a904cf5829e470078031c4d0acb1b69977daac6630a5628e034035602e0c1f8873b43ac0aa3e973396013827e532a7f83c974cbd255e4912bdac2c6d0",
                "8b65f6f887929056198e6e6c55e5e881b032ecde27fac066b9e5660db004420b5a8e22d7a2991a279e9ba124c1ebb9924bee17c83f528633933244689259be00",
                "8b707d4f8f32c80709d880fb257873915033c7d5bce9589a80ca9437618262c55dbe8eec2e8c82469bc335a84a8f16f89afcc53b8329dced5407a513927efc4c",
                "8b9c089a69268e43ef9e577cf024cc2dd5a1b2e0ee27522985b3ca0011a8ad3dea8e1ee759b26a68a50f1cc036737b184e99f0e6ab3742a51a87e632ab150a60",
                "8bc8dbe80f97d77f9447032f51d46eb4f8047eb7227e16b7a73988169aaa0f271ea4af43cf250861d22ec214620b809869662dc8405e82b5b3a05e9c80045ce9",
                "8be464ef9c433dd3fa3b0592edc8c2c96201145a5970e70356528d47d3055288ce67f0bcd0695c2384a71b3a4c98d04c4801bc9052460be62090442c330d424d",
                "8c143e26c805a9317d741763d74e48d4b100d39ed832713970155ee1aa4c54fdc7be3899e334ebe13b847128f9d1ef8d6d0660b71ad0406f7124f2a7e705575a",
                "8c521b4efcd2267d953bd3666f5912e71e5042c6c4181cb340ff415f78c72c3fa3c9fb863fd31dc84e9837f2e40033e8e2324c1ad4d38ac3e2ecfc19e353550e",
                "8cac98c509cc72a61f2d3efc76c8304d12236756da6455621c9e403836a6bf53c6d46f1e69b946ddce0e6ea5f2d76e6b181f0a67b6ea273f030e24480f125e2f",
                "8ccef16c8333828db8fdc1ce31078a193916aa546a7ef36e6fcffab04d607c3b8e247f648a002d8706636de7a3181f19120a85486091104edd01518b333b6c59",
                "8cf1cc8541ac568c393ca18328dcef53106943bb7d12b4ae91d1e39ec37eb931b9bfc9842ab5ce292153ba3c7dc30c45d5488a79128ce4bc75e748945f6a920c",
                "8cff77b54d77005eeec2242a7920df035b9b95663253ac10fcee108c624b6fea26e5f9bbdb15a8ed94a42685d67c0b43948aa79d8a9b83f28e20824c86269186",
                "8d0a4026a00e3197f21e85c2a30de306e504292da0b2a008c6c902cc8308c14409422afaddb557af8054b7cd773fe3acaabf0900386b81449527e0277c55e788",
                "8d696eed43c55020f1b591ce0e6f9548fa4e4c558290587f9eb8209fd580dfb48aad892e442678528bf76ce1874e9e29ca51b795fbf6080060cf086fc5e93457",
                "8d70977d3ab2a90f219ac09ac968110de815a881a0c654ffb01d7e40d849cde76f4feac1f36d6963e97b1c7d5d8fd59e8524bf092061a459b533516650a0e181",
                "8dcf2e0210543bb4ba57dc65ebbd2bbc6abb2b6169616bcca6ef0dbf3c8faa2577ebd61cb5311a15f40a201cebb26f382868087419a4eceec9a16837417a1267",
                "8e687da9826144ec2f6d1403b8a866970af1e6c2da87941cd3e8882760a633eb16a87b0ae26627609af28d727ae28be5c960a9bc6dfad0a0e921074ed8493a7c",
                "8ebfa7fb8906786379e079e2e63e879713158d6f08d2c1b8e8744f097d782db703138e93c3da54b8f8ba476acdfc4610d752dd9ade7602c7cf6b94d1833b01df",
                "8eff6c399487e23e2e2e7c23ba5ab03b551aeea440c77a4164efdbca8fd20da56467fd0a9f1c131531c1b8feb47ca20f47083035c4982f0c95fd3b9b3a6a2f53",
                "90bb7c91281bb6625a0700c1ee2f3cee488cb9c1864ccf2e24699c5d957b1b7b686574d11acb37572fdf18a15f272fd44009b6cfce9b6cdf9025dd5002869d30",
                "9191c987ff115e059910cb82968d09d3fae01748ca190252d4e00a4f6a74497ecefb932e2ffb49a60c81e96a8a67d15db0ec7affd8bf9e486f3b95f5cf76ebbb",
                "91955b2c61f8044c1933f35e6d49fd88f9e28cfc9e28522f3a113532244d51bf7adc731a3a758668555d72740dcab58f8ea9a15ff5ee6e5ee040c9b75d9296b5",
                "920266f13463b54e7fea4f461813914dfbf013306ae4f47cdb822e73bd10c464daa9270eb7d394bf0978dc64bb4535437deca6bc6a2594c2625246478c23855b",
                "92862e616dce7469bafc507ab8fbb47bb6f5ca8b96b05e9fbf39a259d1d4c4cac97b0472f713db2e5fbff0d3e587e7b34bedff80cc2a70c446becf9b488370d9",
                "9291418e9db6f8cff32be8a1326a1ea7f040e86239bc1aba4b1dfe6b26513d988cf85dccb7461fd6bc435c8818cb46873e24694d3ca3335604e692590376bf41",
                "92a15e2cbd0c89fbce36b05e3b282255097bb5492fc11f0d2b0a08c4311621a41ec35df201de51523b62189a3b44bb3eb1cbdf64e80f4a543d0d9f9a99f9bd3f",
                "94d33322ca65f719c7d09a929fd22c6e5102ed939e4456633958d373ebe23cf1ec18babff2f014318ae4867fba97176c1e718c0e319c61d156aa57ce50c6dff7",
                "9508fb16833ec36e7f9b2022367692c5ebe3617622d3671f878b13cc138dca07ee3d36107045dc7ed089734f8d9ca8c852d1da0252af973aa5edd288ccd80a30",
                "9512716162bfe7fa61f4677fd06c1bb438cb4579f4ab55112c61c70a54b0eea64dc6f4cdc961ca333ac04d90494e93d6e28ff3d8f3950d7ee13159e005707b3c",
                "9658d98fdfa43abd9e455d9e770fd885e0901563bc53cb87f1a698325f280e257dbf93eaef2029a65b84e772d73a67d8ab0e96bb4bdd0ba03262fb09ccb305c0",
                "97679def7032179662646816abc12f74fc693fb02c43675a2d5407e58be6dacd1eb483d1bf46f66c5103de3a649211c29e1127dca473e13b02dcd5e7df719cc0",
                "9780f890dcc7e152cc822c6ebab6490cde73575810f4cb53dc779a4f073ec5cccf69bf28d33c13417ba840f3f3e1d160a6b900c9ecbcce7995a044673259f6e7",
                "983c536a607b32a8b3a70474d22d16ceef64a0ab0949688a3b6512215108d1ba19f303e84b1e4ad65239d041ec8386a5810d422dbf1f4e0ab5e110e2fca51a31",
                "9856bb9995c49d93f3f159df955b9845aef3420390b0a960ab55a2e853c37ac599f33720314a4643e26e16c32eaf4f01a885ab68a9e9f801941308ec5229892f",
                "98628ab9dd6bcdd844ccdadf07e33e23ac3e4745b799a61cdc7ae66bf08c01c13ba3ebc2c56ca1bf77e0bc90e9db29bb2c06b3ba36acfcbd9e51372af19745d9",
                "98f53b291844b8d506ee9cbc0093a8f190584c4dc49429c5cb878bdfd7afcc23839a879dd5077f241b32dc577beae63542f8ac432b8d0d44604bf389a0c6d335",
                "99a3e10104d2ff5b3555e352c1f10394b01f88854c1b69e578ee0f561df807cb3630654645c8777b756faf70d44d8034c197ad004b3d5b755d52914860df6345",
                "9b0d308d8e5119c98bf8a5a7f60ab11c805a309a6abd0dbfe5cf7c9ff87df756e4ca0fca295ad93462d2881061cb684f164daa7c9782351575fd48c9a2cf4652",
                "9b1e9aa510d0228bdebf8a888dd50bf12df58cdca5cf0ed0729515227b84b0983875e51c1049f3f140d359d67e15395a310d0816ae4cd50c83216951e520fc45",
                "9bb85515451f03552080244113a876b64e7983c48f27fc415b6b6ae22ce6a01634bdc317887c2994c8c7364e04b669786e594fe4ed10bd1f32b9a005e833c93e",
                "9bf3490b133caf143dbe4d174f3422452a49eadd45fc45f9ac0d8826d334e537de0a521f2bbe8ec90e0a6aa984a22052f798162fe4ac8f424023aabcb901d9f9",
                "9d0c917e18467c2acb268e4dbdb149b2e58aeb2f610b10d0f649b6ffebda123161e2becc6b8ac9e5a74b5e66d4732384bed3f5733e382b2188c7f593af65148c",
                "9e6896755b7c4351e6099496c851dbf2940bc1844b2bceb2af1dc3390f0f5cb0ffa375553435bd56a1824b9980c6537f4d9b29c9441dd151709810a3c9ee4a6e",
                "9e7d948ec5601f246e6327575752e503c912b99f69ccbac08a4a3942490a3fd81a70467946d1daa6eb129b85283f0cd79c3824237b6101a80f2e2617a5aaea4e",
                "9f3c0f21eb5453009e8c2ea1fd63341a530b3a7deb9c1e45ea2915147afa8681ab86055218e3c3d4710c5f4e5e0fbd6d0ac84415b3b7b59355b30b5ac6867993",
                "9f469bbadbb520fb756bb086a5e6c9c39d8352fe775e41973464ce77b3312452e47cbbdc41dd652b5b4fcf287bd348918cd6a4b4594ae55d5747a2898d83515e",
                "9fb127fbe4659174b52ef61778a705cc5a96c8f136445bd28c10ac79398ab9ea291852b627e285e828fe37aa23d05b13cf202f3f0cb4c272aba94dd1806802c9",
                "9fe6ba948da2f4e4aa0e1b0d3e1aec1f093335f8097d7dd3d6b5217cd539f5c41735ef7a615d8210f2e6b777b7198f151264ade172be7dbbf5d442bf91843e8f",
                "a057a30c63e44b52e930a9be247063f8ce26df9bd93d15dd8d4a4315234651cf9d471da837ff0de5878d4854e000b3dc9a02081a4022ed807418371ea77d7e42",
                "a173bcb348b0d6f14d9edaa57b3ee8f828e9b5510f666a7af10a92e95e7db356a8957ed5686f7eacaa1d78b1b3e21386f820278b89fdb553d8d1f3f246c467bd",
                "a1785c3451e197b8d09e31c523e0a679737e8c5039a7a6bd637d866701728c491488bbbe8bd91ce5c2fd94ef0e49ebd88042599487b771d5ccc9cd2db5239119",
                "a1afb2eae49546bf59e6f9a1968287add54dd6e336ec795037090a435f736b6d8ba2076e05e27034979a8caaeafce05fc6d9d5541f4e5a4321e64106dabd1549",
                "a2854bfa579bb99ac67998a149325ec59b262ddeef92af4a219a82494df7b8958ef867b0cb0b78f946265fe5cba47a20b363715ff7a22a8e5e1b1ffe2106226d",
                "a2b06b54679145e65ce10a8356285efcadbacd41be817d2e0858ddba59e638775b79f76cb9e4ac5859627b67ebf227c55b51cc48e6d0d7ef41c9845d96ded68a",
                "a2b503bc78bd0b68fcdc3e3b68e3c68cf3da8d2d48d91f09313c7cdc11b43dd4d4de3a8a2c4b526809adf9879427c4818db72cffdbc2f0015a9fa5ade83bd400",
                "a2f6febc2fcfcd9c3d8d20af8c9eb5c32db43780b926663fbff5227c3117eddfea3da92d95232856f51b80ef3b712f6ee4fec3e0205b1f7ca09ee4a9c64c2192",
                "a2ffa35a3864a7e0ed95ce4d368e3fb3998ce4df2d7b4afb92f3d6ac56adbecafe8c5e341c60b0fc45d76f850fb2554d9b41b4e293ceef7224696fd35bdfd11c",
                "a327296a330c2312c18ffd010756c118cae1ec0c02211369cd89b2a77ff74a038948d23b3421a4ee1e661b048f513f93466116665c084083d3259208a40ca529",
                "a33a93227b33320af3a4f7c6f31492330c2640d01212b75deb1f5bd96f9db6519f9fb8cd91b7795e0dd26c685c23a47280d63263439df771ea1cb94018cc4ea6",
                "a359c15185b6d2a402dacfb7b3dc2e3ce5fd80a1add892b2dcf8e23bebe57f16680eebf7a851c3a870d3ba9932c4e42bad937c4676931d849c62f021ba812860",
                "a4594d457cea879c1123a345cfa09d80ff3223fa92eafbab99aef9f4d410c07747ff77bf3106fb3f9d8e25819fb504aaf0a08b3481e5c267f2e99964dcd42a3e",
                "a4b1eb406ff2c349437a5634148365fd0eecad5a264036e3af171d0f6769a7129590a0a3e09592038baa8bc1292af2bbdbfb74e3b1a685844e263532a87baef6",
                "a4d75fbec09ec489d42c16cac27cf1956cf4c5b493061014f52ecafe7db83386cc2c20202020a8d25f4101791299518f88734ab3233063eb30eb8be7282f225e",
                "a636a4d849a7a5785dea38c84762c0d3652b58018e08ed3fb91344964bc832755df6399bb895b3438234cb498a1cae1e5b24b1aeee8c25bd582c73811ebcd349",
                "a6bd13ce23418140fe8d23868bd413c088342cf218efa942bbea2e91e78edcb4f772962901ac19cde11bc0031c4df8f4c535f18ebfaab255e3323a405cd5a074",
                "a6c5450b42cf99daa18cadabf320f7129630270f83efc884b36294c6a68e6114b9dfc20e7e8ab7f65894c7066168518fdafca3cdf7f4d7a06eca6c2cdb9c0da9",
                "a6d8ed3015e79e4b2add996cbb4f871b7c6dc7b934ad575bfec49286db7ebfd9179e91e37f412c11bb81a2fe40b1c99a3417b79761314112e29b03936cab8573",
                "a7335e025ba3b46a87d6504d28df67b0087fc4f79a05c17ecf428873ede5b67a37b739c893ad136bdb492fa99519763852bf60503359006d7fc188c9bebcfe83",
                "a73a55d20898a02a457c45349ae4fb55941801e9fb7c40d674310256559375fceb630629e35c8fa94bb77dd04f88338688a5e9c7a6cdd9842b90378d73e89c92",
                "a7eff1d14ea6d68ce49da6e2d2a0a63813f8661d1b8ba0b8b95d922daf6157e5793d8198f14b4c686a4502789b80e8eb4e5afc16bfea4a8cb73814468583a056",
                "a847d3e786ac291c4a1fbb4a35dd3575bbf5ab9f732b8a3b95ceb028057a2e5f731837e89cdf15412bc2ba49b515179add28a981352be15e60d3fb902e2872f4",
                "a8c7ecfd849fcd6acecf860a7e6e3ecdb4b25b1bad0db80bad5de47c19e18d0a7970496c3a527d880ed22e1a7b1a050fe6a6252456f50ebf40e001633842186d",
                "a98e5ff3087d05e15590954ef96502c311bf2248a4bb9c8cda8b4b1d93a1d76581974ca55d3b23ad3499575e459216d8a45a60731cd65f3c1d82d8e300d53e68",
                "a9a128a305ad4a3c826f78109216f0c8bf15751f706580aa18254e4bb6d4f166ebd35ac5cacf74376035bafd616040a287d8cfbcc8f1cd76a8ef5ef491d3e65f",
                "aa58daaa7e7cc7eb9762e7ba9a650cbcc11bc960957c0d3873a306e4c990cff3eed46e88a8f7e8c16990f1969200d5b7767f76d317e5048acabf907a6502a3e4",
                "aaa890afbfc5fb3d80bd993392b3ab254ea7b1ebc313f1b3a69c249eb9438d2e36a73afeea30b9ac7f20924130d4b292cf517bd8d2f436df5fa8cd5ca1c8f80d",
                "aac6ccbbf8639742a316cffd3274eef4bf04b6b3915d991e941a75f95a3746f51f3ff3addc21531eb71f40ffb7337c478a1901cdece24a679a4263670eae6cf9",
                "ab859fda475c2371f87fb5b38aea7f10f40c55c0f878fc7b03f1ecadd62f780df1d28b803d464ba449b990a362b59824e7fe4b0190be874fe60b12fa785f5643",
                "ac1b6a306aae66f40e31799696faa096264683e939aa1f0c2057f14be5d8b8630ee04d172d6c96285c76b7332087f939468d929102ec28600aa5b8ee6f263dec",
                "ac1c3bbb94b9c3b8aeebd99559f323daac9bc128d93be2342e499542d2479fd15b97e4ef35a4374b3cb84e7ac231908308e6d5df3d8ed204c99ec67a4f2611b7",
                "ade6c666f2fdcedf67db556cd937b8bf53e5cec3c50b7e89c91ef7c2bc030f38b942d0028a0aa0fb7cb84d90bed49982c1a6484e81f2db2bc0eccbe8e185ef2c",
                "ae7ea6c66db3b9aced813f7736085695678be1464b4f1bfcbe8074e1f8a0b33854ebac6d90deaf2eab32351e0b61d67b8f3131c040a776fd3bf0966d0ce82a38",
                "af506d21ee140905c125e61c19d04599354fe84fe211502c9c766951387f6ff79e80db0658392af173f37ef7c92d7815ac9214e8ba4c6ade3e7a7ef014e5cc08",
                "af73ac0fdf9f0a00a28a19036e2a568028a2eba014417ec5ded61c2584b3c9379c1c4c3d70af5e7520a2e427dd533d2de79177219ea446784eea4293c1a3db6b",
                "b063763571d620c89f1471fa631b6a5613fa87b907e8f3659fd8aee451c44b8f32f080d860dafc215fa3abbec78c33d42e4c8595ad2566a70795a349ba6f5f6a",
                "b06ece5881c6279472fbf3484817ca26adf9d10b6650351f62d5402120805475e6cc3aebd43bef1eb37a4065b0154d0090ce814903f43af6555e2bc24325dd98",
                "b1a0cbb91459433ff6de32b189783a734c2ada4c04d7dd164de449ce79c749d382aff10aa9ed7b4449af3390da51585123ef88719ecf7cfea9c24223023a23dd",
                "b1eecb410f694a1b4a91756fb1c2f4966ec2d75daed2f15b7aebca6ad167c9f0b164abf446653ce85a3c89c384d67b4ea7d1a818aa94ef43c26b74138133dffc",
                "b21969cb27a5c2b5cb085fb4d6105f36ee5bf436053a9d4c926185660fb0668ad604da67bb11076e72c3d7963bcdeff4ec19c44af9c660acf47084974a243e07",
                "b23cc5329b4a456c3d1f7b15a2efb7761df8a5e9443757cc219a9abdd781c92844d4ba94f46dc89e7e2b84eecf650e42f3f910e2d8094dbc4f9bd0b9b7a585d9",
                "b286daf19ae72f27fc9a3dbef5410110f45ff0088e1f51de8732206e18ae82694dfffc9feddd6a0c379f13e1dc7777e66e5fa7e42cfccf7e4aa26d7927eeb944",
                "b3c6dd5bfc604a32e1997850965ce549c8000c24bcf4c25333f3769a57e2d25dc7454924c0aa7b99b1e1d6ab2f0860b6fe54e8893b6e08027122f901ee03b59f",
                "b3e2c0fd78fd3b76c89985597cefe00fd43e191cc564d329c4f8a73a14a2aa1f365d30da354935fb1d58f79b202f23d22a0a1c2f2e79371a6bdd6de4da9a2942",
                "b4109ccaf220b3d6a6bc51a74dc293851e2b2b1ad985a98df639595355fe72f87f7ff3de8eff47939842971af8a9bab5a7a55f2c09c63bfb6cefc34ba62dccf0",
                "b47a96b489f4dd851c364dee278699905f1ed933ba3a98a6660160463a8decef830bb91ac0a1b4f9b742df2dfbdc9625ec27133a69f6cf3cb81ed298183764e7",
                "b52e493e5049e86223385546f3407f5924fd75311a0a11af38423b7bb7c02c3f085fd1d9188515c7b43c59fbf168c23126456dba98dc9c0d29b7a3edee159015",
                "b56fee3497fc8f6f67f52eb9bf9851ffdb3dee6e156a8d3b75e676c9e26ad5d12bc44b4f436d2ce6ab0406bbe45b26c30b078bd44957e0d951b2e994caec7ccf",
                "b63a726e549bf804864d6b8667549b38def68e0c6ab2afc963930019d386713f3d4a923721e2a0b27ff6fb393531a4ba7c1ece808c004b72ad29fad265030bfd",
                "b63c689e0edc5a7e8142717836bbb5f080ed397233f6d5ca5b4a0dbdb2f413370ce5cf1adb82c11d64781131945a6cd00c0ec95f8281cac28b140b9761452e01",
                "b6b7dda5c0941212d33e36c4ccaf61ed794cdf7b4b5004502713e97856615d76c7f1a44de6272ff734423b657f4c9e36c297479ca09b7a85f12700f25801fcc8",
                "b6d21e14f7f98806e3979e7c8c77cda36988e9d63645193f0a8cfc7fa587e324d68f26884fc047ec4fcfa4c858c45a46b725108f230dcb50c2674beef65ac62f",
                "b706c41bef6219520f189a2ce931fa9b9cf8d03fd4bc2ab131474692ac1f277915fb5bc8a77f2e5e45350e08f640bffb4f99cc396a0453c08742a3518188a068",
                "b7f1183d0df5a8ecd8cba18b1749cd39bef91916f9c14f0ec3f40effefd071e1ccb319c0c31fc16917740d872063cb1ca17801ec4b2c7265d4f3569a767b3583",
                "b864b2f4afcc87cf2a9a5e21b49387810cdddc2a1199fe04d4536706d9ddb7000e411d462152f939a4676cd1e8bb4bd1b3246e8603cbaca4e40d1929cd9287b2",
                "b987dd03fe80d7ae5387da9c427ca067a8054d097b216b6d1ac07e083bdd6f00052e536033e5140ae2ea03e993b5f708e525677b88b1cd7c4947bc1e2e3924af",
                "ba1ed5e2de8387ceb1fc8e9170bec7faf048bff2b942dd02c29a176220c5a4dcd7d2834fc98d7ea6c4a2513ebb865cab58ee99b13336f724f0d67f1b140900d5",
                "ba6b85ed903797d9f7f25aaa1996b9bd1917a423eec1caed98382c21987dbb8fe0ed702e06e273014b253e639d7209ec8e0b683609915b81118abe3f54644129",
                "badf89906aeca859576caa3830f43e427a039e2ea27d68c299849367c9a8e45af5b559234d1e7b86dce31df3abede16e6062fed8e35f31fe7435ad5c9a298792",
                "baff09432cffceac6ecd395a8ed5c947fdafe6c30c1c0f3b83c4ddfaa2ca9d57b21876153ac2b82067d7d37bc6789e2f68558f1f26fbcd53fd6a500124f80655",
                "bb550a827df0ff9a6d122045e05b6cd789b7946b62a5fe7e631bbdb7c2a782b8bc68a2cce5f92e0d7765719350c9e2556c94b5a000ab01a65af8f7d3bc978a96",
                "bb967b774e33eb14b81f8eba86b8ade2e96821cf784aaf7dcf84308bfe9cefba536469a7f3168dc5ac8a3e2d3eb4bd63410f899e266a5ccae05be45fc9239fbb",
                "bcd38718230a21d5c8817f9a4bb0c7649a739a9fdcfd50638121b86e9eaf5638b6b712f84302b108a50684685c4f60862d29a4e2605de70e5361f964ba26a4fa",
                "bcf97df7717015b5dba6b2a7454fd7405a317a1c0ddf6078ebf90f4022249152f59ac5bbcf8e0e67af1a4f2dae6c5ee6d013286ff0060dddcbe8642a07f7fb96",
                "bd95ffab930242f2621b9563840e428b4dc7ec694ac10cff2df3336bcb254bb8e9a29b7cddeeb4424c0675d86e9b5d6520ea4a5889e90b5d73ae3efc75e00862",
                "bddcef8dc61f29a96634fc1e294f16e3d23734feb6bb7891eef7edbae7a0de9884f117544b243d9407c4f1bdbdad88924ddfc7729b815195f4c89e6d9f13c8f4",
                "be915edb40ab82d6d209db3d60143505ce2eb9dd55c1d1c76adc03c26d2ede0ae737313db4395b40c61a8e72161ab660fa115a87a02027fb9933fd5b315405c0",
                "bf64f21ff129fae4bf3ff795c39df0a4a6dc40ece1d71747a913dd84af2e4cac4e1b84213e23cb1397b3299f26b1b6302a3cdbd41da8baea2505febd6e1803ce",
                "bfa76e5f5b77f4843809bb7e871893fdb47dec0683735b3a8431d8fe0700e290233018cb489914660a959c1b6f10173e434e4dbd8e12674607790df7b3a70750",
                "bfe2947fdaea28a0a41a0f40635c693911c4c7191b582019c23a23a09bb0871d05a337bb843c914bf94e208f084a692ee333bec063f3688faf04dd2aa70311de",
                "bfe8d96ce71f9cce7bd16b5282041c66773405f1a11f4f0c8d3b6e81646f262bdac0cb3ee8f54e13175ba9ed7da38407e8a9aeff20972271f0c62c0b19f8b644",
                "c003454191705a17ae316dd4092e0442ed1b6166bd8b1da898df6814feb7bc77780137eafc0495ae395fe56f6c3956ccbaf69332a8d00ef6fc0fb58d5cf10766",
                "c04cf75541cd3c8fdd2c9cd14218c97767e11da7c360666598e7b5bf1b116b4e3856cb04e9fc480cd1b3441abddce03ff9ae03c9d88f78a220e309defe3d8c71",
                "c0bd0b60f86e34246df39f0fdd10d3f0b6eb3537e26786049cecc6ea3e792f6a14944be7da027741467bd4d9ac069abb02e06b37898f09fb9fa5f9dde3c568ac",
                "c1e166044d7731207ce8b838011eae84814857a8ddb63b8a393d2497bdcd7e96d045aa229a7978533646cf9f9ea99a619943599d47a1558073690601fb486ad5",
                "c1f9c40e5db887e598001aff0fbcc892d3b60dbafa0fd5256e0cbd797ca9d6122bac95bec85f0d997237493f8fc82b7c8d8976fd32990715ce462cd7c1e2f7ce",
                "c20fa0af7f8fd503733588035addc90abd5101fef62467b259ad9cf14ab671e5042e7823dce2f19ea3e03f2b1b4819bccc2c8668a67f3488665972192cc11ef5",
                "c23d914fe4110a2655329b4ff1461c2502aa1d9a0de249f9e0858c36c6c04a77a88ed485872d620606e4f99478bbb75102463c3d3b16bc87eeb3b92455d7c0ce",
                "c2803b4b2ab026b2a0537aaed5590a10ed9df0e8c64cfe50ad5df7cd4918e4da9dbc178598aa185cfb527ed0e27bdf07c61e65ea19bf694cb24f954916f2ac9e",
                "c30b00200b4da524e643fc064541ffb462c333a37fbbb25aef97f442d6a6cd98d62ac7f2a13fa28219cfc48725ad668ac2efb43f1cad6a8a8c1bce6015032e9d",
                "c30d314f8aedba31d6640699427c8f293777bf5908256891094a3d391cb862db6c4d7505387b0b33c340d6c77fccbb980fe9fad47b408cb1c781dd471edf9daa",
                "c3746d6c9293e7b2d4e50aeccd9d5019ff08deb7a8c92ba59c75f5dca6234c3804650afe11c0dc44914dc2a63396c02ba864177ff800434621e4d1b50dc8042e",
                "c385f5eff344875a584ba5a085161ccf85ab600bc74a80bfb4d327cba21e22e57321c83191d8afdf8ed924334cce879d1f8d437552ba85db474b96658f03cc45",
                "c43d79d5f0a3c429389e1dfa7a25e68dd5850c25dfe849ff94806c52eab2cd9182c9a3fa90bda531e04fc426ce75b06bd11166412e228382a3d06dbbe2c5fd69",
                "c45b7e46184c9fcd30e1830f4ce1d6a3772c5f93f3bfab6b84d166df6b386fa1a3431c2f1fa68b8d207cee42047b2edd8bbaa27a565580fe0c92c35b6a617afa",
                "c4c8dbf218256af2415c45e452530570536fd56b6d029202ef1f202b4ccc665a447aa3c6e922317203c79d7d56dd9eb65244c492f5725212ec119d7215261b35",
                "c5d4c712e06053bc35bc6cef173daaaae7fd47db5ac812b95a2f0f08374432ffeaa2b49a0f10cb60f38405d2459489df0e43fb73b48bdb6caadcb4405915c33e",
                "c6fcdc877cb4db9df0b903ba7224bdea3a929e3f06025b9cd7620930bdd77ff38ff36239d41d68c588f545128956fa6a966c91b8a8ee13153af96aeffbca5205",
                "c8115e147a4684c942c5e69a28a8be77e13370a3374011a318061c86034bc88d39f71f73c1be007f965abcdff5c26f3beb3714027f8026a2e512541a3310b6c9",
                "c8856b3b79170f89ce0b34fe63318e4ef7f1a781b8279745e749e083fcba6cdd66c2799dda13577bbb8695b1f01c089927827d699d713bfbc12aaf9934f2667e",
                "c95322a3f6bc3e191a7ca4b43f28e7cf1e44cb3741309ba223564c533222aa9d1d4cc00571f6033192eba847e21c9169bfa7aa99e8bdf6fc136637e514d618ee",
                "c9670e9e1435d736a607744ad802c6828c7b8cdbea4394f4cd7bc0979b6a7c8205751c87ff521f49f2b2b6e3c91776dafafb7ef4023d56b3921549cbd70250a7",
                "c9c0becfeb78738ae86adfc5d59f3a3d877b6989e1d84562fe73fd55d64784bbc9b2afce3f543c30dac188bf93cc970bd1c779eceb058ece03284c941242fa84",
                "caa40a08424987e5b5d13e2279491a72566608311f5dd498260118622061aedb92a8af869122457f1fbd48459698ab27e8ed7ee7f20048846560a407e7532861",
                "cada2355b9ba38d9ad816da2f44177254996baa7d76b1f59ea6277280630de02153a0262e47634c4ca446c70274e32bd0b1ec0c478e3760ec1b7d0a6e354572b",
                "cb0fef583d3a44f13dd0a89741c0ac09d089d42e21f50e757517f4c6d88dc7798eded55ea5d7b0046fa25c7068187d084f301ae7659f6dd3a0e3bf1419418f75",
                "cb1ce7c331dc6a00087a74683f4c045288bc90dee7c8abc12eee0d4c92a4a3347e03e5961ff84853e15d0f02f86fdd5f6ad10bd9e0f2ddf14de3563ddbd3e87e",
                "cb42cb3205438d700affc4fedb7c25ec01d48a900331e50dccce6f59018e141eaf23a4554a9edf8697040ac55584a625ef9adaa65777c53411521a569a853143",
                "cbdfc7b9aac498fabe5e3d52799c72aef3dcb8ded017e2c4603d5b967c3cb3b3ce3ac2731dd99751028b9fd6bbd472722aaec38a96eececaf435a8e9171e963c",
                "cd06a7286c3cadf8e578ac52bd8be03bf87bdbbb12e2240a87311c439fe7f3f774681dc65e6f53d959833b5c70b8ef19153c05e54f4102f8f5b696a39d5bde78",
                "cd1226e73c8275de15f2edb3744a413277fc76a4ebb7842fb743215c14b405b96c4e64bc8324feafe58937da218a1b0aeb9451d5781672ced1ad68c31eb54ba1",
                "cd29a72636f0e6cc84007225ab0f4af9bf5ef64e331ea2424575a28bda4fca2a12b132559cc62590bdf9c28740ea17adae062c1526cd4a603a8010187d446a51",
                "ce31dc5dfa61834e3ab67925ff5f24baf04b4aee6e35cd8ffa524f87b2e2e094999f85c68cc7a1c0e9b19016d050c1755406d02f7116ef85afa355c65a9a5855",
                "ceb650faffb2be5451640d2371423da06f31de98933950a8d9f3c207dbefb2665d722dbc6950215c7051de2be032c65675f34f2161f5fea8f9dd46788543f750",
                "cf5b890eb74b4ac647d011a989a92a413c23c0db580c87057fc5afba2d83dd861f2a8640fb952381d090328d6278dbe56713d516020ce95cfb6d4fecf63b89e7",
                "cfcdf9ff1066b3ff1f631ea69a81dd0decdb06b8590959c1d87855807652f0570cb82e0d8b46aff8073a6b9f0ae6d025563e12ba64116e415955129674705394",
                "d01e5e47d9ecf3b29e3104c0c3be4e55873e6f7d66be914494485d16e2a318f6df82bd12966bb81bba7daea4d8f4149b9eb029cff5418fc216d16881c6166ddc",
                "d02d8263fd2ba6f00221e360f15a48975e5e880a9aef9a988f125ea62a510530ea07fa81d7323c5a5c5d8922a92d1186bc2c42f74ea643aa00c656c9b455ea3c",
                "d107272a82920f5801f2ffd7bff753c3d74348109b63dda3d920329254ec95a3fae9713d323d19ab47a13eb17e39f40f4060e60cabb272b9c22af8f9836ea584",
                "d1368e068384dd06d4ac825a2c788a9b79d235ef4dc42e9ca0b29a74984801365d94f7524fe89db4bd152ab58253690f9b2abf4d68f307aec378464790755e8e",
                "d1597583240927e6eee648a8216f4d1e359ce84384bcadae20dcc1521b742be22e94fe4adee44a39627b7d0beec70fefe4f7a4461bcdbe3ba01c80569e8dc10e",
                "d16640029081b240394752f10d47ee079ea4bc71069acc279136e20747a561a48127af5dde32f5c91ba662573c1c58999edbc7ad9c0e58afdf8289acf873d910",
                "d25433d23a7bfbfadfc24336d12a15eb2c3fe89ed0191bfc09101dc9b0ddb997623d1d3f4aa56bd625c865b63030f4fe278cebbdae201e8412277cc3094c2b1f",
                "d254ba580aac23186cc124708147109e62f4ca8c1dc08443f3efd302f218160b071f30abe082e4caf353a015ad79983e713fd92aaf6f8913babdb8a1f530b191",
                "d2d1631ff3b480e01cd27192347281f604e1c28d5db57908ff184199c06e962ce90302a4fb6caa01cc89a9f180fd6e2ba0d5baba4cb0d9128ab22a52691aa1ba",
                "d2e25279928380787e0e875237c160a86ba53532583ecaeb60eade8b7197483b148eb6757f17a9559732e244e7cb4fa8a8a921f55fb821bdd517b6e804fe6429",
                "d31c708932ebdd07b155da5c6e261a8b28107f66c31d86bf1300523c60e3f0d07b016529c45aad3b71765a2678ac6dc2ca1a7c716ca8017be3a406f69a5986b5",
                "d37dd236a527ddaae152211ff2974f4deeda3bc754d091914c073a41add688b7c86deffcf9a5c38293f1a77cc087e76d5791b8678a04b9456a0fd3fb8f648acf",
                "d604160050420ae1ff70138cb2b1350b3492daf4b53ed3c6c25843318bb4d9342ae85717f688aedc50ea70627333d144a4779ec33e57bb221c22ec2b1821c61c",
                "d60447e6ed121d1b3b1d4bf72c26534f6e5a2a81d0e5b0acc76caa1f1e8cf7771e5203a43d4d5275854738ddf89747c355977ce257f01f474cb194a45957e3ca",
                "d60b9237589f91ce6e585de13ea1cb1408c2c35a0c6aa40fcd3e5f325e6ad86c2f32190b94b9e02ce331312d0c2f6f65576e3537c4a4dbbcc3db7a114a3beac5",
                "d64ec83842f2ef362ecc092870bac2a3c9b97301faab927826af1f0e42ddb4feffc4ef36e8bf3b3736a71d99c779334eea73183b53f15d9a85d51ebaca01f30f",
                "d6bc663a421f039ef63a6d4eab9a77a9a2c6f37c6d56d63725ce169871e6ecf30edeea92bf060002695de5ce8a03e643de5a0db57c9a4ade35b483f48c16bbb8",
                "d75194487c4bc511a842fefd57417171fca2573204a559e4a00deacbe7e125c98b87ab07df8dd12bdf24c500c3302fdb64ca6736fe4edfc6613d58f6f9857618",
                "d7a9cc84a36bfef5575453531c7ccfea81396b1daa37df763d2e02ef0fa56f57e3017b7bea1818056c1eeee5d1e46d03d903fabd9af53f7685910cc44633e93e",
                "d7d216598401574c3feb19593a7de2bd82ffd34e0a5bb8bc61a5ddbc42b61475ac22bf3c4a364ed1c906c4762f3f9bd8994ade3e5a6841ae9e50f3bc18788d83",
                "d8996b5bb851857cbe4979761939389dd92cedb01cd61e942de5d940d518d1ca07858685302683425e1519fe6ec8ee24dbbcdcd77f7fd7475503487a5f269072",
                "d996f72a9921d7a94ba668a1803fd044e89c65bfbfdb3a4ec9ea14ef40f69c95fd57220240cc35befaaf7639e5385bf5b9e43aa932300306b9b2295bf51c2c3c",
                "d9a7ca5c137f92423298725282f950e04561e2efeb4acf487dd24017c86a3b07c9bd8d97b4943a238942a50aadcb7ca057decc45f244bd56d77b0262c55e7b33",
                "da9c56969edffc68d059d5df4f8ac18cfc25021044dcaae92dcde88b86c65cc1840b24a5c74d1338050cc12b4c1372828ba274b47db2a9e6456f25ae396e282f",
                "db8eecd1ac9b20918e31f04331e46007f367c1f6365c9c4abb7af70eb1d2ea12174375fb95d1d11c46e03c81976de6d68f70693e1ea7f2096aecf06307a17d29",
                "dbe9efadf636bdd82f3ac2b3710653421e7cefca01b74012824b73f7368469fc4dd7e788b047920d4b3b7e4a486c732872ca11a75a89d1323337191ac2bc899e",
                "dc712928ca2785b21f4b46dc0eede474ea19bfbefd9e5452ef9e4e46a553dd22f81db20fd984bac26fdc9427123f265f026784b779f476b46d78c294e907f21c",
                "dca1aa77f919ef1000d91291ba68800340332c299e3c4c6bcabb41fd2305f36db353211d6ac691c37d16889e3c3ffc1efb7c621e8040cb77b7249e264af44768",
                "dcd77ac177a78865444707460b317b31b0559fdcccd3243ee68d049c34da17836a4e4f875675274bc6562e33b7de2e05a606b38e2b593a11ff7ed5e8ccc11910",
                "dd91138a5516a972dd6e3a9ede73026ea6a242649d56d3a2f5ac01170ec8ba8fe6ea3a5668d67ce6625b9c4915ec90669a6a2c643faa89af771fc5e667429cc5",
                "ddcc784ac0e65cc3378be5966535f0b25ec5966504648bfdd8dfae22ef3e0b0cf30833d21a377ed20f7351f342050e91b4ed2a1b4ecfcd08a59949be5f494973",
                "ddd3c23e25c3856dc8723fad291a6e89a5f235c00af055ec50d3c55a5e61bb4f88801c723368430496bcff0168793655267050bb0a305ba3b5418b9700ad4ae1",
                "de1988f9165e0ff0a05aceb49ee5b199cdee6996691d0640daacc664a5fe997ff8caef71fdcb3b6ac4ee908e692a32de49e18bf0fcf8057db8c3953a8832a3e9",
                "dee065b956b99b10db4763759d64c41791af1a7e77f1864f90a2b0847a12633dcf9bc108db7eaf73cc8d0e750f5c37383a56cd77cc2276d3960104c6bebe6346",
                "dfa1c224dd23aad64a677ed7714a479b7bdfd13eb53eec98f3f619d3be9a62cb4e47b5ebbf0b3c03432d6fe264100961df9be0158c5f6d63c9d39f72741bfa8c",
                "dfb43eae70434ab4e5a3fbbfad859d1e89eab8f25224fd4b2025141f33b494aa5874bd2bc7e21d62558acc0ca464d2c82f9b121eb3023668ed73c538a54da7e1",
                "dfba16931477ca958ae3fc49473db3717ae6e08ec20fd71e7a0f8bba17237b74c5555b70ee625b411192f746f0ed83f83094b6c79f942f1e2225904409be42b2",
                "e012ad5e3f0132f4f3ae194212e2425b7ecfc5f49af78fefb56bdd88b57e38664186ff5676a9b28da296a6a2948459c90c057de4c142db02986d8bf841d227b5",
                "e0b0c0cb301c6eacc0ca6e644506b58a631951493f073e88af6305c98cf33825289b7240b53d783ab64470da05195bd7d1d2e78b538dbc02052f8149c28a5a08",
                "e0d5c84c8ebd7da0d8fdefc56893aca702a5401bc14d8de2fa897552bc5aa32afd10fbe5f45c8b5f4a7eeaa8918a00db29f6fa7524d5cb384120edc0d2ff7584",
                "e1ce8d6c229ec4b1f5e6087a7b9a9a5ca4a39e4622e1f4baa2a1abaa909dfd8b36f0b897b9e49751e30aa9559da3284c24878339f8dcf523f8b58c3fd27c956d",
                "e1e152f4dd434bf475d9bc501f0fb06c3ea901f7dc7f1f7e3cf45bbf355ab1a176e285d7ae75f6216ea2ad008400c2fb7fe2a471ddf4e74580df6340e563ee15",
                "e249989b0c397ac03583594a3911c9e9222ccce620921170bb39b8ab6fdaf136b164f3c9fcd8b4f750fc469c9cd69f144c2ca2dd918fcb778148fbf9751a869b",
                "e2c385cc423e65dc43999526f8558bae028f091c67faab38ea1cc90d34f31a72423c79fd3c64401250e3bf51d56289be30974bd89c8b4ceec67cc4aaa1043613",
                "e30284ab1e38bd74b6bbf732c608106a5aa15c5e951c687e6ba2e352115e6b217b06658a11ced296970efb5e8a0fa3f656cc0b037484dee8d20fe4f7e211b241",
                "e3215a3525de5efa0f50935b19d523e89706d6b4ecd370e540429bc2cc14d1c1b35f3d3bc42992499b6fa748b35fd6a6fa5fa621ebc6404f966ca5ee01cee041",
                "e3764c738c1c1fa6c063aecd70e041588a2a0762fb4be037f7fd5bac92482ed7ccc166f166ae166637df0ec05244c00c8fba7e726872247adb9b8f2c85cc5aff",
                "e3b63439b217c359915be675af3d056f73549d0ffe38f9875ada5088f7ee4cfd033672d07f9882d477bf1b7a2318bb8a592e21749eb1e8ef4bdb5b6bdf8c06c7",
                "e47c6f3ead0faa89879f03d7a19ea46ddc9518adce29bfd8f36186f2be6bd03054057c2f8012fe9feb346c012d5bf361864a62b07d320f5c4bc632130e393c48",
                "e47d17ac9f66499d252c5fdfe6175d8deeb822589083a9eecc1bae3662cf6c73889f2d67d737e78392836852df0567bc12b4e59bf0591c462346359247f59a57",
                "e5082a0fe21619b7b3993f2cc8a85b8b9a41df3f6e490eed0d1d54db548278c1972510bead915843f0fc096fccea180f47e958475bce3f5bfbeea1687bd7c472",
                "e61565e75d632748413d51997cabb00613355f0a94cf6b2f929fdfa351490d2afc9bad72c7fa67595d9d9c7adc9454e8d1b05527991a17258424b14ec4e9a1d5",
                "e7847a5814b865bc043600fee7d810b9815da389278fdfdd412114ab8f87b1536f4b63f3f7c3d3eeb097486abc152043eefdae6fd12c2f8743dac1cb668ab136",
                "e81452e481f6ebd7790186b78c48c774d322146b0fd5450671a0708f723f2d6010355ef134cd320a36df8f69786d0716c0c49d6b33225b3840725c54fb1d2665",
                "e832650b55a6212401d2b650630d358f24cbba8492bb331fd1baa720680d1905b097e12b593cf561e3957478655705bea9557349fe4d2b404595b53126ba1de7",
                "e85ee6f281b1d52b45e85d5c0c9ce265a8f003c1b53150b041f412bb4ba52e1809d34ac466f554ece5bbb672d8edf23451ece2976668db2881340bf71ab88a60",
                "e8d27ae2a57fa3abdb6921e9a888d17702907cb0146c2ebe0f1cb65463f1a47075bcdde29dec63edb91f26ebab5c8ac92bf1fde39e17ed2c1d2834464fb255e7",
                "e9da05b6d590dcf94addabd168c543be41a2275ddf44f6f44db1e3698f0bf7dd67f2e93b66679e0a0d42a2f39f3bc6a389f0e6b362431d0cb197fe46f9dd6606",
                "e9da36b2cd9990858f7ff8bea0ac1dcba93211112b4849f186feaa8c4ddfad60a09cd1f1dcba79fc435da68e979f580cc63596438a529b3f119b3a35531145da",
                "ea8456e0667e1cce6273cb333b7e6982f9aa0f260c7c103e04eb0076a73fe3497070b1a8f0c45b097dc3100a30254095a1c63e9514367655e9a378344ed25d1d",
                "ea9b785144ee9a545c295c42552974eb6933f6a52cdc4fd79b8644b3209d271e9a29346f9d0d41469a41b12c2f5d5db4272eb121220a434ca939a509f75d9b26",
                "eaf0b12e9f0ff8ba96e7cf300153d0ad3a43653417760ad84686e55d35d1f1c7b3cc89efdced65cadd7e777d68ce11166a0e758c9e40d8d3dce922d8cc6e6c34",
                "eb21b362a26fd19e550eafe72fdb4dd227a728bd19ebcc774a9bcc5249e33733d24f2ae809889b8180427454fffea4586d7834c7ddc4f68be998062fe6335d2b",
                "eb2e3f86f3291a762234b2b5f0d4128b554b7d1045f2515385dca295c23c4482b27c6c26999d150dcca3e8e59534a7db6190b1a78a1fa9a5eb08f98050b961e4",
                "eb5078bcb64f9595d6d8589ad60502b2870f16942fbb4cbd2483c817c7fa460faeda90b82bcf531ac96be8c1d6825953ab85ab0bd46ea477615e71e50386ffe0",
                "eba33ac72d36c0d7f8932b7b037c76e5c356275aed5f0d800d9b943bc0571b27d0120500c498eeb2483968fa412125c5830bd26b79af5e918c8ff6ceb9a5dfd0",
                "ec29885687c7ae8ab0863ec2f579823100aaba96442d29b6be715b0864b403f2d14a1b7c34490924a1620a2c8ac03c565aa827d53bc8d39f16c5e06f122bb7f1",
                "ecf7d5b8e58a42e2f0cbd2f1d33e323c52c55058208570a1a6116dde1f7073c6675e24dcbdd119ab380bed73ec3c199f2aba2237e59914e94467fa7f34e5067f",
                "ed025be817f336148aeec2c2f3c5b2710fed151c5c0c904f7e0766eb489f5ff41becd6eafcfe6bbacb9d7ae87d3baa05b7bf680fa7722e3c444509a7c6c7cee0",
                "ed113cfd665ef6f6ca6d465b86409b2841dd7ed0f35b34368940992d04a61e14287f5bd59d0ccf691c0eee646a2dc6cac521823640dd3f0a09a5a0b66221dea1",
                "edba92d24e2a70118c566733547891f8a5b9eb4fff919e2b99b3625b3177276ab13634ec5436111e4ea59a84576963ba00608237611315773f3c9fe6748c9ad6",
                "ee126e49798a6b3435ef9ca30d90eac68ac3b3d487bc98a2118f5090061bfd8819f4679ac6d08c60bc7bac558b9930ad26fbd2e4bc283e4a36e50cf3af43dcea",
                "ee67f45e444f11f0b38e077cf8a56b95ebd12a1a32b4028b72dcdf1fc37df9c805a0f0338718832bd1d1bbd36f9fd5977cbd113a6d31217b1bc3a2fbb72bfb8b",
                "eed2f3f0cb735e94a3c5e421ac17fd04ca2ea77cd10e25fe66f94e095124b24ac8d138afe14b6e2f5d7f2d632d878c145c0acd9ddf66b3dfb8aec8411ad06039",
                "efac4e3064d20da8d1f16bb2dc5dabed1c629cfb68206d9b289d66f3f77bd662fad0195fb56f444b40bfd285fb82d5f9c3be90c8e82ef0e7cd8d8187388231bd",
                "f01b1445667ef816fcf63b65c4ea6965de77dd21e4b05ff9ff9ff3faa8941c100a4a9376dd9a3035a25398f2ce4dc9a1f379854cb06dd37f2d989734678b9b84",
                "f0c01e6581315b7c349e64717f72cab539daebb7f32eff1c8be2ee5fcd5d0b09968f740dc438f94d12709ea84a604f2fbf521d4557a6bfe340d8bfbe41f67949",
                "f0c3307ff3f19409920b48e568ba22e0d96c3eb81ba137e2208d3a5adfdeefc219540221d140f1eb1dc71027cf1a0d461cdd849a2ddeb199957220220a9074a3",
                "f1bef40251c2a0317bff59d1690b487346772f73e77cf30bef777370601e9e2997b9b053f7eab92a1159469e18529dabe5125051e321e01e993e7a876cbdac38",
                "f21dfe58bef28afdd8388a747dd6b5695fc6fc2e04ce0e8c22b97b5398952a3585c927de58412377a13bdd4d1849e71185bdf84e7f0849435a86f0d0cfd0e9c4",
                "f24c0e379d96327c1563f23a4a1a2bab7d1893f08f1047f207bae2515319cb4e762eaad17a649f00d9f6ff1fde5d4cd118fedd8b0fc1b151d93c38fa2d6e6f90",
                "f2d87d78482aad2450457716b45c728a8b736c3741f3ed735982f409ae60975332db4951c9f59d91749f16b5b5a8ebe0d66ce5f3ea244fb93c941110afce996b",
                "f2f359ea473c07070fd1e50d2fcfe3dc4f624f01678c35920b079660b2d5b9c1743259ae6129992cd3b99ec2cdda94a45e8710888488b196c6cd9c853e86e454",
                "f35ce011f75fc01d153a94339aad24ae4fd5f181af55916a5ca0153cd5220ed199b98459eb88e9f4f3a4f8fbcf5c272bafdca35ddaca0827c4b480f79e7db1d6",
                "f4d95085d806d445daffd7a2f7c9b7be8be6e5952810c927a32c78a778a3c57f3e1323f8fb77bd0b7f163f26ab4bb0c05b7f108469fdceafa0e48da585611330",
                "f4fefb50fb767281e23601ab7e2c1249a0bae6e8e6332833c4c369ed8a796881620821f8fb3c337de789c011bb751695e83642e2976c0e7b379b3aa8ff8f11db",
                "f51e055e79f4561b6ac07497c314af455607daaf2702dce6615d3523d027689d3d83f58f04e6110a6e3a4f2515f641f1ac62420397bc9b8c1c94c7206a0ad720",
                "f56a47b89ebd2d22f869e2260b55f70d7ae0d499fc3fd4dbcb0e6e507f12513f29c004b9426e428696df0d434e4ad467f143bc620a2f661a54608de9e2c265d5",
                "f5b21c61fee60cce58afde4d1d6374aefe44863380c11ea7e89121f14f1930901072e0086d5f68c54606e8218d5dcf9510d5c2bb68a711f5994af106587d42e2",
                "f61bdd3abb2d03f07e33bfb0b9fba46069468cefd9eda04e77cdc5c2f13a417716d3e60ca91c39de1a480b72112ef0e6143e927fad45410ee252cfce9034f0b1",
                "f62196a11f50362b35eb1ed830b03c18bb187e4d07014a3d1b238756fe836f254afa923184170512a0c6d990032b4b1edb25dd2b74f6fc15f6ef6b51b6f82dd4",
                "f632e921b52f4cd9bd234ef736fe03c69d2a7e9959c70288a8b550b1f19770fc4bc59dcdca6fe4032016e6b3c6a0de80ccfd017fd454cd622d2fbcc63161ceb4",
                "f6d408cfa8e4146a8f1409d20c0e155d78a89361000e6ba6e032517212e6ea00f8693236c55e3a4c4e74e8fa6e44a1537f8cbd1169038f595d19be86ffc000ce",
                "f6ee560eaef228990b5016a989e42fb44fb98c90b4cf005219265436a0d35dfc5f27bab93ead607318fedfa60c05be5c91d6b2c2e5b8974d7fba72570bf202b4",
                "f7158445f487df4dfd046ffb1ea14cb9aebcf4bc224a48c6512d9f8a84ce821f6a04f04806307eac645ffffbf978adc82f9f54925f923d140677d113617cbaed",
                "f755f4f89a6f5fad453a30145e51dd2c48cbd145969e8dbdd48c64a4b8e9ae92f6387a43db07f9556d97c6de1a30069e6444532d3c4b01486ddda34e52454e06",
                "f787f9dff8e4d0b414490cf825a7e70ddec1fc5ddeac5148b9510cf5b5501284970060985ee54bc3773da62b9c99667eb7d45901d46c2b654e7f56ca2b5123cf",
                "f7e487e391ecd2c9c74bae7bbbf82022c36583e97acf0e11c17fa769cf9685f5cb3332f460a113d5269b3ad85b436e8566fb53c4e357220913c54fd3592c54d7",
                "f8204d838d32ae877343dafad8f924b36013a852ea7cc994ba73c6028934566c529ccdd7b4ed9d2f9baf6b3438df173e8e9ff2c1e9df2b836d2ace572a1d12f8",
                "f8aa7d637588b8af55264bb2f5c235ecb18aa303fd4cd4733deb529b428d4040a4418c367a1dc9c6a6c4beb3c8009137e3e797dff61af323238e814471e10de4",
                "f980d152d5c14c6e7557f13fe26305ed0105dbb23177d455372e5529a5d3333e203070e87352d985a136f5ce3976a16b97070a4343fb4cb9d0760d9bcd5c7677",
                "fa20c983c3612deeca19c4b63c5a6eb0c3ec550a4ae7af48d342ea80191778e86cb6adeae357d770ac4e758fcb2d56ded96cc369b63b9403552e6ee8df4f9970",
                "fb99256cf57649fc5264cd7a0ff9d1e6719c20ce35b45dc30b0390402cdb68a74b57e8b4bd3b048241836112162b701766c8caf8db55328949271e87286f7136",
                "fbdc5fe1d050f77a871b0b94182e10deaf4ec2022d476ad4cd5fdfaa16c377ea6a5b858ae110cf15d8cb2164ff0b05f0057467f749ab3b098ae927ba78764430",
                "ff10feed44f8ffc5bfec6996d7786dbf0a3f41381bf766f4bb479b69bc5d08673329f7be9541eb914979a2507ff2875a7c27707b6651f8601c2d8d664ead865f",
                "ffabc5fcfc734fe883a74e3a555e761b2c5140a4dd20b5ec95298e57c07275612f60cc8237ac553d0507bdb601126090ab4077cbcb3c6cae8f05c2cf23e02add",
                "ffdf1968f5bf4816e06e3988270b2b78390ee563155084ba176a25d0d7096642019eddaeca54aae81a02d537fba5111216cb247e15142360f9facd2412cffeed",
                "teo"
            ],
            "language": "ca",
            "phonemizer": "",
            "meta_file_val": "",
            "meta_file_attn_mask": ""
        }
    ],
    "test_sentences": [
        [
            "Per exemple, dels nostres bancs que inverteixen en armament de les nostres empreses."
        ],
        [
            "Preguntin-se si aix\u00f2 era necessari."
        ],
        [
            "La suposada ocultaci\u00f3 dels informes que advertien de risc s\u00edsmic."
        ],
        [
            "\u00c9s de 633 milions d'euros quan es far\u00e0 la publicaci\u00f3 detallada."
        ]
    ],
    "eval_split_max_size": null,
    "eval_split_size": 0.01,
    "use_speaker_weighted_sampler": false,
    "speaker_weighted_sampler_alpha": 1.0,
    "use_language_weighted_sampler": false,
    "language_weighted_sampler_alpha": 1.0,
    "use_length_weighted_sampler": false,
    "length_weighted_sampler_alpha": 1.0,
    "model_args": {
        "num_chars": 179,
        "out_channels": 513,
        "spec_segment_size": 32,
        "hidden_channels": 192,
        "hidden_channels_ffn_text_encoder": 768,
        "num_heads_text_encoder": 2,
        "num_layers_text_encoder": 6,
        "kernel_size_text_encoder": 3,
        "dropout_p_text_encoder": 0.1,
        "dropout_p_duration_predictor": 0.5,
        "kernel_size_posterior_encoder": 5,
        "dilation_rate_posterior_encoder": 1,
        "num_layers_posterior_encoder": 16,
        "kernel_size_flow": 5,
        "dilation_rate_flow": 1,
        "num_layers_flow": 4,
        "resblock_type_decoder": "1",
        "resblock_kernel_sizes_decoder": [
            3,
            7,
            11
        ],
        "resblock_dilation_sizes_decoder": [
            [
                1,
                3,
                5
            ],
            [
                1,
                3,
                5
            ],
            [
                1,
                3,
                5
            ]
        ],
        "upsample_rates_decoder": [
            8,
            8,
            2,
            2
        ],
        "upsample_initial_channel_decoder": 512,
        "upsample_kernel_sizes_decoder": [
            16,
            16,
            4,
            4
        ],
        "periods_multi_period_discriminator": [
            2,
            3,
            5,
            7,
            11
        ],
        "use_sdp": true,
        "noise_scale": 1.0,
        "inference_noise_scale": 0.667,
        "length_scale": 1.0,
        "noise_scale_dp": 1.0,
        "inference_noise_scale_dp": 0.8,
        "max_inference_len": null,
        "init_discriminator": true,
        "use_spectral_norm_disriminator": false,
        "use_speaker_embedding": true,
        "num_speakers": 840,
        "speakers_file": "/mnt/netapp1/Proxecto_NOS/bsc/tts/training_outputs/0.14.3/multisteplr-August-18-2023_12+15AM-0000000/speakers.pth",
        "d_vector_file": null,
        "speaker_embedding_channels": 256,
        "use_d_vector_file": false,
        "d_vector_dim": 0,
        "detach_dp_input": true,
        "use_language_embedding": false,
        "embedded_language_dim": 4,
        "num_languages": 0,
        "language_ids_file": null,
        "use_speaker_encoder_as_loss": false,
        "speaker_encoder_config_path": "",
        "speaker_encoder_model_path": "",
        "condition_dp_on_speaker": true,
        "freeze_encoder": false,
        "freeze_DP": false,
        "freeze_PE": false,
        "freeze_flow_decoder": false,
        "freeze_waveform_decoder": false,
        "encoder_sample_rate": null,
        "interpolate_z": true,
        "reinit_DP": false,
        "reinit_text_encoder": false
    },
    "lr_gen": 0.0008,
    "lr_disc": 0.0008,
    "lr_scheduler_gen": "MultiStepLR",
    "lr_scheduler_gen_params": {
        "milestones": [
            5,
            15,
            25,
            35
        ],
        "gamma": 0.5,
        "last_epoch": -1
    },
    "lr_scheduler_disc": "MultiStepLR",
    "lr_scheduler_disc_params": {
        "milestones": [
            5,
            15,
            25,
            35
        ],
        "gamma": 0.5,
        "last_epoch": -1
    },
    "kl_loss_alpha": 1.0,
    "disc_loss_alpha": 1.0,
    "gen_loss_alpha": 1.0,
    "feat_loss_alpha": 1.0,
    "mel_loss_alpha": 45.0,
    "dur_loss_alpha": 1.0,
    "speaker_encoder_loss_alpha": 1.0,
    "return_wav": true,
    "use_weighted_sampler": false,
    "weighted_sampler_attrs": null,
    "weighted_sampler_multipliers": null,
    "r": 1,
    "num_speakers": 840,
    "use_speaker_embedding": false,
    "speakers_file": "/mnt/netapp1/Proxecto_NOS/bsc/tts/training_outputs/0.14.3/multisteplr-August-18-2023_12+15AM-0000000/speakers.pth",
    "speaker_embedding_channels": 256,
    "language_ids_file": null,
    "use_language_embedding": false,
    "use_d_vector_file": false,
    "d_vector_file": null,
    "d_vector_dim": 0
}